<?xml version="1.0" encoding="UTF-8" standalone="no"?>
<svg xmlns:dc="http://purl.org/dc/elements/1.1/" xmlns:cc="http://creativecommons.org/ns#" xmlns:rdf="http://www.w3.org/1999/02/22-rdf-syntax-ns#" xmlns:svg="http://www.w3.org/2000/svg" xmlns="http://www.w3.org/2000/svg" xmlns:xlink="http://www.w3.org/1999/xlink" xmlns:sodipodi="http://sodipodi.sourceforge.net/DTD/sodipodi-0.dtd" xmlns:inkscape="http://www.inkscape.org/namespaces/inkscape" width="1573.9" height="2252.3301" version="1.1" id="svg2" inkscape:version="0.48.2 r9819" sodipodi:docname="U238.png">
  <metadata id="metadata405">
    <rdf:RDF>
      <cc:Work rdf:about="">
        <dc:format>image/svg+xml</dc:format>
        <dc:type rdf:resource="http://purl.org/dc/dcmitype/StillImage"/>
        <dc:title/>
      </cc:Work>
    </rdf:RDF>
  </metadata>
  <sodipodi:namedview pagecolor="#ffffff" bordercolor="#666666" borderopacity="1" objecttolerance="10" gridtolerance="10" guidetolerance="10" inkscape:pageopacity="0" inkscape:pageshadow="2" inkscape:window-width="1024" inkscape:window-height="716" id="namedview403" showgrid="false" inkscape:zoom="0.7071068" inkscape:cx="753.5229" inkscape:cy="258.66421" inkscape:window-x="-8" inkscape:window-y="-8" inkscape:window-maximized="1" inkscape:current-layer="svg2"/>
  <defs id="defs4">
    <style type="text/css" id="style6">
  
  tspan {font-family: DejaVu Sans Condensed, sans-serif; font-size:25px}
  .symbol {font-family: DejaVu Sans Condensed, sans-serif; font-size:90px; font-weight:bold; stroke: none}
  .su {font-size: 32px; font-family: DejaVu Sans Condensed, sans-serif; text-anchor:end; letter-spacing:-3px}
  .halflife {font-size: 32px; font-family: DejaVu Sans Condensed, sans-serif; text-anchor:middle; font-size: 30px}
  
  circle {stroke-width:3.5; stroke:black}
  .nonmetal {fill: url(#nonmetal)}
  .noblegas {fill: url(#noblegas)}
  .alkali {fill:url(#alkali)}
  .alkaline {fill:url(#alkaline)}
  .metalloid {fill:url(#metalloid)}
  .halogen {fill:url(#halogen)}
  .poormetal {fill:url(#poormetal)}
  .lanthanide {fill:url(#lanthanide)}
  .actinide {fill: url(#actinide)}
  .transition {fill: url(#transition)}
  line {marker-end:url(#Arrow2Mend); stroke-width:3.5; stroke:black}
  .ab {font-family: Liberation Sans, sans-serif; font-style:italic; font-size:40px}
  .background1 {stroke: none; fill: #ffffff}
  .background0 {stroke: none; fill: #f5f5f5}
  .SideKey {fill: #555555; font-family: DejaVu Sans Light, sans-serif; font-size: 40px; text-anchor: end}
  .key {font-family: DejaVu Sans Light, sans-serif; font-size: 25px}
  </style>
    <marker refX="0" refY="0" orient="auto" id="Arrow2Mend" style="overflow:visible">
      <path d="M 8.7185878,4.0337352 -2.2072895,0.01601326 8.7185884,-4.0017078 c -1.7454984,2.3720609 -1.7354408,5.6174519 -6e-7,8.035443 z" transform="scale(-1,-1)" id="path4011" style="font-size:12px;fill-rule:evenodd;stroke-width:0.625;stroke-linejoin:round" inkscape:connector-curvature="0"/>
    </marker>
    <radialGradient id="ball" fx="0.75" fy="0.25">
      <stop offset="0%" stop-color="white" id="stop11"/>
      <stop offset="100%" stop-color="grey" id="stop13"/>
    </radialGradient>
    <radialGradient id="actinide" cx="0.5" cy="0.5" r="0.5" fx="0.5" fy="0.5" gradientUnits="objectBoundingBox" spreadMethod="pad">
      <stop offset="0%" stop-color="white" id="stop16"/>
      <stop offset="100%" stop-color="#add5ff" id="stop18"/>
    </radialGradient>
    <radialGradient id="nonmetal" xlink:href="#ball">
      <stop offset="0%" stop-color="white" id="stop21"/>
      <stop offset="100%" stop-color="#a0ffa0" id="stop23"/>
    </radialGradient>
    <radialGradient id="noblegas" cx="40" cy="240" fx="40" fy="240" r="20" gradientUnits="userSpaceOnUse" spreadMethod="pad">
      <stop offset="0%" stop-color="white" id="stop26"/>
      <stop offset="100%" stop-color="#c0ffff" id="stop28"/>
    </radialGradient>
    <radialGradient id="alkali" xlink:href="#ball">
      <stop offset="0%" stop-color="white" id="stop31"/>
      <stop offset="100%" stop-color="#ff6666" id="stop33"/>
    </radialGradient>
    <radialGradient id="alkaline" cx="0.5" cy="0.5" r="0.5" fx="0.5" fy="0.5" gradientUnits="objectBoundingBox" spreadMethod="pad">
      <stop offset="0%" stop-color="white" id="stop36"/>
      <stop offset="100%" stop-color="#ffdead" id="stop38"/>
    </radialGradient>
    <radialGradient id="metalloid" cx="0.5" cy="0.5" r="0.5" fx="0.5" fy="0.5" gradientUnits="objectBoundingBox" spreadMethod="pad">
      <stop offset="0%" stop-color="white" id="stop41"/>
      <stop offset="100%" stop-color="#cccc99" id="stop43"/>
    </radialGradient>
    <radialGradient id="halogen" xlink:href="#ball">
      <stop offset="0%" stop-color="white" id="stop46"/>
      <stop offset="100%" stop-color="#ffff99" id="stop48"/>
    </radialGradient>
    <radialGradient id="poormetal" xlink:href="#ball">
      <stop offset="0%" stop-color="white" id="stop51"/>
      <stop offset="100%" stop-color="#cccccc" id="stop53"/>
    </radialGradient>
    <radialGradient id="lanthanide" xlink:href="#ball">
      <stop offset="0%" stop-color="white" id="stop56"/>
      <stop offset="100%" stop-color="#ffbfff" id="stop58"/>
    </radialGradient>
    <radialGradient id="transition" cx="40" cy="320" fx="40" fy="320" r="20" gradientUnits="userSpaceOnUse" spreadMethod="pad">
      <stop offset="0%" stop-color="white" id="stop61"/>
      <stop offset="100%" stop-color="#ffc0c0" id="stop63"/>
    </radialGradient>
    <radialGradient inkscape:collect="always" xlink:href="#metalloid" id="radialGradient3382" cx="710" cy="1910" fx="710" fy="1910" r="101.75" gradientUnits="userSpaceOnUse"/>
    <radialGradient inkscape:collect="always" xlink:href="#poormetal" id="radialGradient3386" cx="910" cy="2110" fx="910" fy="2110" r="101.75" gradientUnits="userSpaceOnUse"/>
    <radialGradient inkscape:collect="always" xlink:href="#poormetal" id="radialGradient3388" cx="710" cy="2310" fx="710" fy="2310" r="101.75" gradientUnits="userSpaceOnUse"/>
    <radialGradient inkscape:collect="always" xlink:href="#poormetal" id="radialGradient3390" cx="510" cy="2510" fx="510" fy="2510" r="101.75" gradientUnits="userSpaceOnUse"/>
    <radialGradient inkscape:collect="always" xlink:href="#alkaline" id="radialGradient3400" cx="310" cy="1110" fx="310" fy="1110" r="101.75" gradientUnits="userSpaceOnUse"/>
    <radialGradient inkscape:collect="always" xlink:href="#actinide" id="radialGradient3402" cx="310" cy="710" fx="310" fy="710" r="101.75" gradientUnits="userSpaceOnUse"/>
    <radialGradient inkscape:collect="always" xlink:href="#actinide" id="radialGradient3406" cx="110" cy="510" fx="110" fy="510" r="101.75" gradientUnits="userSpaceOnUse"/>
    <marker refX="0" refY="0" orient="auto" id="Arrow2Mend-1" style="overflow:visible">
      <path inkscape:connector-curvature="0" d="M 8.7185878,4.0337352 -2.2072895,0.01601326 8.7185884,-4.0017078 c -1.7454984,2.3720609 -1.7354408,5.6174519 -6e-7,8.035443 z" transform="scale(-1,-1)" id="path4011-7" style="font-size:12px;fill-rule:evenodd;stroke-width:0.625;stroke-linejoin:round"/>
    </marker>
    <marker refX="0" refY="0" orient="auto" id="marker3275" style="overflow:visible">
      <path inkscape:connector-curvature="0" d="M 8.7185878,4.0337352 -2.2072895,0.01601326 8.7185884,-4.0017078 c -1.7454984,2.3720609 -1.7354408,5.6174519 -6e-7,8.035443 z" transform="scale(-1,-1)" id="path3277" style="font-size:12px;fill-rule:evenodd;stroke-width:0.625;stroke-linejoin:round"/>
    </marker>
    <radialGradient id="actinide-0" xlink:href="#ball-8">
      <stop offset="0%" stop-color="white" id="stop16-9"/>
      <stop offset="100%" stop-color="#add5ff" id="stop18-4"/>
    </radialGradient>
    <radialGradient id="ball-8" fx="0.75" fy="0.25">
      <stop offset="0%" stop-color="white" id="stop11-8"/>
      <stop offset="100%" stop-color="grey" id="stop13-2"/>
    </radialGradient>
    <marker refX="0" refY="0" orient="auto" id="Arrow2Mend-16" style="overflow:visible">
      <path inkscape:connector-curvature="0" d="M 8.7185878,4.0337352 -2.2072895,0.01601326 8.7185884,-4.0017078 c -1.7454984,2.3720609 -1.7354408,5.6174519 -6e-7,8.035443 z" transform="scale(-1,-1)" id="path4011-8" style="font-size:12px;fill-rule:evenodd;stroke-width:0.625;stroke-linejoin:round"/>
    </marker>
    <radialGradient id="actinide-7" xlink:href="#ball-89">
      <stop offset="0%" stop-color="white" id="stop16-6"/>
      <stop offset="100%" stop-color="#add5ff" id="stop18-1"/>
    </radialGradient>
    <radialGradient id="ball-89" fx="0.75" fy="0.25">
      <stop offset="0%" stop-color="white" id="stop11-2"/>
      <stop offset="100%" stop-color="grey" id="stop13-7"/>
    </radialGradient>
    <radialGradient inkscape:collect="always" xlink:href="#actinide-0-7" id="radialGradient3406-4-2" cx="110" cy="510" fx="110" fy="510" r="101.75" gradientUnits="userSpaceOnUse"/>
    <radialGradient id="actinide-0-7" xlink:href="#ball-8-3">
      <stop offset="0%" stop-color="white" id="stop16-9-7"/>
      <stop offset="100%" stop-color="#add5ff" id="stop18-4-9"/>
    </radialGradient>
    <radialGradient id="ball-8-3" fx="0.75" fy="0.25">
      <stop offset="0%" stop-color="white" id="stop11-8-1"/>
      <stop offset="100%" stop-color="grey" id="stop13-2-9"/>
    </radialGradient>
    <marker refX="0" refY="0" orient="auto" id="Arrow2Mend-17" style="overflow:visible">
      <path inkscape:connector-curvature="0" d="M 8.7185878,4.0337352 -2.2072895,0.01601326 8.7185884,-4.0017078 c -1.7454984,2.3720609 -1.7354408,5.6174519 -6e-7,8.035443 z" transform="scale(-1,-1)" id="path4011-4" style="font-size:12px;fill-rule:evenodd;stroke-width:0.625;stroke-linejoin:round"/>
    </marker>
    <marker refX="0" refY="0" orient="auto" id="marker3321" style="overflow:visible">
      <path inkscape:connector-curvature="0" d="M 8.7185878,4.0337352 -2.2072895,0.01601326 8.7185884,-4.0017078 c -1.7454984,2.3720609 -1.7354408,5.6174519 -6e-7,8.035443 z" transform="scale(-1,-1)" id="path3323" style="font-size:12px;fill-rule:evenodd;stroke-width:0.625;stroke-linejoin:round"/>
    </marker>
    <radialGradient id="poormetal-9" xlink:href="#ball-82">
      <stop offset="0%" stop-color="white" id="stop51-4"/>
      <stop offset="100%" stop-color="#cccccc" id="stop53-8"/>
    </radialGradient>
    <radialGradient id="ball-82" fx="0.75" fy="0.25">
      <stop offset="0%" stop-color="white" id="stop11-4"/>
      <stop offset="100%" stop-color="grey" id="stop13-5"/>
    </radialGradient>
    <marker refX="0" refY="0" orient="auto" id="marker3332" style="overflow:visible">
      <path inkscape:connector-curvature="0" d="M 8.7185878,4.0337352 -2.2072895,0.01601326 8.7185884,-4.0017078 c -1.7454984,2.3720609 -1.7354408,5.6174519 -6e-7,8.035443 z" transform="scale(-1,-1)" id="path3334" style="font-size:12px;fill-rule:evenodd;stroke-width:0.625;stroke-linejoin:round"/>
    </marker>
    <radialGradient id="actinide-8" cx="0.5" cy="0.5" r="0.5" fx="0.5" fy="0.5" gradientUnits="objectBoundingBox" spreadMethod="pad">
      <stop offset="0%" stop-color="white" id="stop16-92"/>
      <stop offset="100%" stop-color="#add5ff" id="stop18-7"/>
    </radialGradient>
    <radialGradient id="ball-9" fx="0.75" fy="0.25">
      <stop offset="0%" stop-color="white" id="stop11-5"/>
      <stop offset="100%" stop-color="grey" id="stop13-4"/>
    </radialGradient>
    <marker refX="0" refY="0" orient="auto" id="Arrow2Mend-3" style="overflow:visible">
      <path inkscape:connector-curvature="0" d="M 8.7185878,4.0337352 -2.2072895,0.01601326 8.7185884,-4.0017078 c -1.7454984,2.3720609 -1.7354408,5.6174519 -6e-7,8.035443 z" transform="scale(-1,-1)" id="path4011-1" style="font-size:12px;fill-rule:evenodd;stroke-width:0.625;stroke-linejoin:round"/>
    </marker>
    <radialGradient inkscape:collect="always" xlink:href="#halogen-7" id="radialGradient3394-1" cx="510" cy="1710" fx="510" fy="1710" r="101.75" gradientUnits="userSpaceOnUse"/>
    <radialGradient id="halogen-7" cx="0.5" cy="0.5" r="0.5" fx="0.5" fy="0.5" gradientUnits="objectBoundingBox" spreadMethod="pad">
      <stop offset="0%" stop-color="white" id="stop46-4"/>
      <stop offset="100%" stop-color="#ffff99" id="stop48-0"/>
    </radialGradient>
    <radialGradient id="ball-94" fx="0.75" fy="0.25">
      <stop offset="0%" stop-color="white" id="stop11-88"/>
      <stop offset="100%" stop-color="grey" id="stop13-24"/>
    </radialGradient>
    <radialGradient r="101.75" fy="1710" fx="510" cy="1710" cx="510" gradientUnits="userSpaceOnUse" id="radialGradient3375" xlink:href="#halogen-7" inkscape:collect="always"/>
    <radialGradient inkscape:collect="always" xlink:href="#poormetal-1" id="radialGradient3388-1" cx="710" cy="2310" fx="710" fy="2310" r="101.75" gradientUnits="userSpaceOnUse"/>
    <radialGradient id="poormetal-1" cx="0.5" cy="0.5" r="0.5" fx="0.5" fy="0.5" gradientUnits="objectBoundingBox" spreadMethod="pad">
      <stop offset="0%" stop-color="white" id="stop51-3"/>
      <stop offset="100%" stop-color="#cccccc" id="stop53-87"/>
    </radialGradient>
    <radialGradient id="ball-4" fx="0.75" fy="0.25">
      <stop offset="0%" stop-color="white" id="stop11-27"/>
      <stop offset="100%" stop-color="grey" id="stop13-79"/>
    </radialGradient>
    <marker refX="0" refY="0" orient="auto" id="Arrow2Mend-31" style="overflow:visible">
      <path inkscape:connector-curvature="0" d="M 8.7185878,4.0337352 -2.2072895,0.01601326 8.7185884,-4.0017078 c -1.7454984,2.3720609 -1.7354408,5.6174519 -6e-7,8.035443 z" transform="scale(-1,-1)" id="path4011-9" style="font-size:12px;fill-rule:evenodd;stroke-width:0.625;stroke-linejoin:round"/>
    </marker>
    <radialGradient inkscape:collect="always" xlink:href="#metalloid-1" id="radialGradient3382-6" cx="710" cy="1910" fx="710" fy="1910" r="101.75" gradientUnits="userSpaceOnUse"/>
    <radialGradient id="metalloid-1" cx="0.5" cy="0.5" r="0.5" fx="0.5" fy="0.5" gradientUnits="objectBoundingBox" spreadMethod="pad">
      <stop offset="0%" stop-color="white" id="stop41-3"/>
      <stop offset="100%" stop-color="#cccc99" id="stop43-8"/>
    </radialGradient>
    <radialGradient id="ball-93" fx="0.75" fy="0.25">
      <stop offset="0%" stop-color="white" id="stop11-44"/>
      <stop offset="100%" stop-color="grey" id="stop13-6"/>
    </radialGradient>
    <radialGradient r="101.75" fy="1910" fx="710" cy="1910" cx="710" gradientUnits="userSpaceOnUse" id="radialGradient3626" xlink:href="#metalloid-1" inkscape:collect="always"/>
    <radialGradient inkscape:collect="always" xlink:href="#actinide-3" id="radialGradient3402-1" cx="310" cy="710" fx="310" fy="710" r="101.75" gradientUnits="userSpaceOnUse"/>
    <radialGradient id="actinide-3" cx="0.5" cy="0.5" r="0.5" fx="0.5" fy="0.5" gradientUnits="objectBoundingBox" spreadMethod="pad">
      <stop offset="0%" stop-color="white" id="stop16-5"/>
      <stop offset="100%" stop-color="#add5ff" id="stop18-9"/>
    </radialGradient>
    <radialGradient id="ball-84" fx="0.75" fy="0.25">
      <stop offset="0%" stop-color="white" id="stop11-0"/>
      <stop offset="100%" stop-color="grey" id="stop13-76"/>
    </radialGradient>
    <radialGradient r="101.75" fy="710" fx="310" cy="710" cx="310" gradientUnits="userSpaceOnUse" id="radialGradient3705" xlink:href="#actinide-3" inkscape:collect="always"/>
    <marker refX="0" refY="0" orient="auto" id="Arrow2Mend-0" style="overflow:visible">
      <path d="M 8.7185878,4.0337352 -2.2072895,0.01601326 8.7185884,-4.0017078 c -1.7454984,2.3720609 -1.7354408,5.6174519 -6e-7,8.035443 z" transform="scale(-1,-1)" id="path4011-16" style="font-size:12px;fill-rule:evenodd;stroke-width:0.625;stroke-linejoin:round" inkscape:connector-curvature="0"/>
    </marker>
    <marker refX="0" refY="0" orient="auto" id="Arrow2Mend-5" style="overflow:visible">
      <path d="M 8.7185878,4.0337352 -2.2072895,0.01601326 8.7185884,-4.0017078 c -1.7454984,2.3720609 -1.7354408,5.6174519 -6e-7,8.035443 z" transform="scale(-1,-1)" id="path4011-41" style="font-size:12px;fill-rule:evenodd;stroke-width:0.625;stroke-linejoin:round" inkscape:connector-curvature="0"/>
    </marker>
    <radialGradient inkscape:collect="always" xlink:href="#noblegas" id="radialGradient3400-0" cx="310" cy="1110" fx="310" fy="1110" r="101.75" gradientUnits="userSpaceOnUse"/>
    <radialGradient id="alkaline-1" cx="0.5" cy="0.5" r="0.5" fx="0.5" fy="0.5" gradientUnits="objectBoundingBox" spreadMethod="pad">
      <stop offset="0%" stop-color="white" id="stop36-4"/>
      <stop offset="100%" stop-color="#ffdead" id="stop38-6"/>
    </radialGradient>
    <radialGradient id="ball-0" fx="0.75" fy="0.25">
      <stop offset="0%" stop-color="white" id="stop11-7"/>
      <stop offset="100%" stop-color="grey" id="stop13-1"/>
    </radialGradient>
    <marker refX="0" refY="0" orient="auto" id="Arrow2Mend-7" style="overflow:visible">
      <path d="M 8.7185878,4.0337352 -2.2072895,0.01601326 8.7185884,-4.0017078 c -1.7454984,2.3720609 -1.7354408,5.6174519 -6e-7,8.035443 z" transform="scale(-1,-1)" id="path4011-77" style="font-size:12px;fill-rule:evenodd;stroke-width:0.625;stroke-linejoin:round" inkscape:connector-curvature="0"/>
    </marker>
    <marker refX="0" refY="0" orient="auto" id="Arrow2Mend-01" style="overflow:visible">
      <path d="M 8.7185878,4.0337352 -2.2072895,0.01601326 8.7185884,-4.0017078 c -1.7454984,2.3720609 -1.7354408,5.6174519 -6e-7,8.035443 z" transform="scale(-1,-1)" id="path4011-2" style="font-size:12px;fill-rule:evenodd;stroke-width:0.625;stroke-linejoin:round" inkscape:connector-curvature="0"/>
    </marker>
    <marker refX="0" refY="0" orient="auto" id="Arrow2Mend-9" style="overflow:visible">
      <path d="M 8.7185878,4.0337352 -2.2072895,0.01601326 8.7185884,-4.0017078 c -1.7454984,2.3720609 -1.7354408,5.6174519 -6e-7,8.035443 z" transform="scale(-1,-1)" id="path4011-47" style="font-size:12px;fill-rule:evenodd;stroke-width:0.625;stroke-linejoin:round" inkscape:connector-curvature="0"/>
    </marker>
    <marker refX="0" refY="0" orient="auto" id="Arrow2Mend-51" style="overflow:visible">
      <path d="M 8.7185878,4.0337352 -2.2072895,0.01601326 8.7185884,-4.0017078 c -1.7454984,2.3720609 -1.7354408,5.6174519 -6e-7,8.035443 z" transform="scale(-1,-1)" id="path4011-20" style="font-size:12px;fill-rule:evenodd;stroke-width:0.625;stroke-linejoin:round" inkscape:connector-curvature="0"/>
    </marker>
    <marker refX="0" refY="0" orient="auto" id="Arrow2Mend-4" style="overflow:visible">
      <path d="M 8.7185878,4.0337352 -2.2072895,0.01601326 8.7185884,-4.0017078 c -1.7454984,2.3720609 -1.7354408,5.6174519 -6e-7,8.035443 z" transform="scale(-1,-1)" id="path4011-0" style="font-size:12px;fill-rule:evenodd;stroke-width:0.625;stroke-linejoin:round" inkscape:connector-curvature="0"/>
    </marker>
    <radialGradient inkscape:collect="always" xlink:href="#actinide-8-8" id="radialGradient3404-1-9" cx="310" cy="310" fx="310" fy="310" r="101.75" gradientUnits="userSpaceOnUse"/>
    <radialGradient id="actinide-8-8" xlink:href="#ball-9-4">
      <stop offset="0%" stop-color="white" id="stop16-92-4"/>
      <stop offset="100%" stop-color="#add5ff" id="stop18-7-1"/>
    </radialGradient>
    <radialGradient id="ball-9-4" fx="0.75" fy="0.25">
      <stop offset="0%" stop-color="white" id="stop11-5-3"/>
      <stop offset="100%" stop-color="grey" id="stop13-4-9"/>
    </radialGradient>
    <radialGradient r="101.75" fy="310" fx="310" cy="310" cx="310" gradientUnits="userSpaceOnUse" id="radialGradient4888" xlink:href="#actinide-8-8" inkscape:collect="always"/>
    <radialGradient inkscape:collect="always" xlink:href="#actinide-34" id="radialGradient3406-7" cx="110" cy="510" fx="110" fy="510" r="101.75" gradientUnits="userSpaceOnUse"/>
    <radialGradient id="actinide-34" cx="0.5" cy="0.5" r="0.5" fx="0.5" fy="0.5" gradientUnits="objectBoundingBox" spreadMethod="pad">
      <stop offset="0%" stop-color="white" id="stop16-96"/>
      <stop offset="100%" stop-color="#add5ff" id="stop18-5"/>
    </radialGradient>
    <radialGradient r="101.75" fy="710" fx="310" cy="710" cx="310" gradientUnits="userSpaceOnUse" id="radialGradient3705-0" xlink:href="#actinide-3-9" inkscape:collect="always"/>
    <radialGradient id="actinide-3-9" cx="0.5" cy="0.5" r="0.5" fx="0.5" fy="0.5" gradientUnits="objectBoundingBox" spreadMethod="pad">
      <stop offset="0%" stop-color="white" id="stop16-5-9"/>
      <stop offset="100%" stop-color="#add5ff" id="stop18-9-6"/>
    </radialGradient>
    <radialGradient r="101.75" fy="1710" fx="510" cy="1710" cx="510" gradientUnits="userSpaceOnUse" id="radialGradient3375-3" xlink:href="#halogen-7-4" inkscape:collect="always"/>
    <radialGradient id="halogen-7-4" cx="0.5" cy="0.5" r="0.5" fx="0.5" fy="0.5" gradientUnits="objectBoundingBox" spreadMethod="pad">
      <stop offset="0%" stop-color="white" id="stop46-4-8"/>
      <stop offset="100%" stop-color="#ffff99" id="stop48-0-4"/>
    </radialGradient>
    <radialGradient inkscape:collect="always" xlink:href="#poormetal-1-2" id="radialGradient3388-1-9" cx="710" cy="2310" fx="710" fy="2310" r="101.75" gradientUnits="userSpaceOnUse"/>
    <radialGradient id="poormetal-1-2" cx="0.5" cy="0.5" r="0.5" fx="0.5" fy="0.5" gradientUnits="objectBoundingBox" spreadMethod="pad">
      <stop offset="0%" stop-color="white" id="stop51-3-5"/>
      <stop offset="100%" stop-color="#cccccc" id="stop53-87-5"/>
    </radialGradient>
    <radialGradient inkscape:collect="always" xlink:href="#poormetal-1-3" id="radialGradient3388-1-3" cx="710" cy="2310" fx="710" fy="2310" r="101.75" gradientUnits="userSpaceOnUse"/>
    <radialGradient id="poormetal-1-3" cx="0.5" cy="0.5" r="0.5" fx="0.5" fy="0.5" gradientUnits="objectBoundingBox" spreadMethod="pad">
      <stop offset="0%" stop-color="white" id="stop51-3-7"/>
      <stop offset="100%" stop-color="#cccccc" id="stop53-87-4"/>
    </radialGradient>
    <marker refX="0" refY="0" orient="auto" id="Arrow2Mend-8" style="overflow:visible">
      <path d="M 8.7185878,4.0337352 -2.2072895,0.01601326 8.7185884,-4.0017078 c -1.7454984,2.3720609 -1.7354408,5.6174519 -6e-7,8.035443 z" transform="scale(-1,-1)" id="path4011-08" style="font-size:12px;fill-rule:evenodd;stroke-width:0.625;stroke-linejoin:round" inkscape:connector-curvature="0"/>
    </marker>
    <marker refX="0" refY="0" orient="auto" id="Arrow2Mend-6" style="overflow:visible">
      <path d="M 8.7185878,4.0337352 -2.2072895,0.01601326 8.7185884,-4.0017078 c -1.7454984,2.3720609 -1.7354408,5.6174519 -6e-7,8.035443 z" transform="scale(-1,-1)" id="path4011-81" style="font-size:12px;fill-rule:evenodd;stroke-width:0.625;stroke-linejoin:round" inkscape:connector-curvature="0"/>
    </marker>
    <marker refX="0" refY="0" orient="auto" id="Arrow2Mend-97" style="overflow:visible">
      <path d="M 8.7185878,4.0337352 -2.2072895,0.01601326 8.7185884,-4.0017078 c -1.7454984,2.3720609 -1.7354408,5.6174519 -6e-7,8.035443 z" transform="scale(-1,-1)" id="path4011-22" style="font-size:12px;fill-rule:evenodd;stroke-width:0.625;stroke-linejoin:round" inkscape:connector-curvature="0"/>
    </marker>
    <radialGradient r="101.75" fy="310" fx="310" cy="310" cx="310" gradientUnits="userSpaceOnUse" id="radialGradient4888-1" xlink:href="#actinide-8-8-7" inkscape:collect="always"/>
    <radialGradient id="actinide-8-8-7" xlink:href="#ball-9-4-9">
      <stop offset="0%" stop-color="white" id="stop16-92-4-4"/>
      <stop offset="100%" stop-color="#add5ff" id="stop18-7-1-0"/>
    </radialGradient>
    <radialGradient id="ball-9-4-9" fx="0.75" fy="0.25">
      <stop offset="0%" stop-color="white" id="stop11-5-3-4"/>
      <stop offset="100%" stop-color="grey" id="stop13-4-9-8"/>
    </radialGradient>
    <radialGradient r="101.75" fy="310" fx="310" cy="310" cx="310" gradientUnits="userSpaceOnUse" id="radialGradient3503" xlink:href="#actinide-8-8-7" inkscape:collect="always"/>
    <marker refX="0" refY="0" orient="auto" id="Arrow2Mend-76" style="overflow:visible">
      <path d="M 8.7185878,4.0337352 -2.2072895,0.01601326 8.7185884,-4.0017078 c -1.7454984,2.3720609 -1.7354408,5.6174519 -6e-7,8.035443 z" transform="scale(-1,-1)" id="path4011-14" style="font-size:12px;fill-rule:evenodd;stroke-width:0.625;stroke-linejoin:round" inkscape:connector-curvature="0"/>
    </marker>
    <marker refX="0" refY="0" orient="auto" id="Arrow2Mend-2" style="overflow:visible">
      <path d="M 8.7185878,4.0337352 -2.2072895,0.01601326 8.7185884,-4.0017078 c -1.7454984,2.3720609 -1.7354408,5.6174519 -6e-7,8.035443 z" transform="scale(-1,-1)" id="path4011-21" style="font-size:12px;fill-rule:evenodd;stroke-width:0.625;stroke-linejoin:round" inkscape:connector-curvature="0"/>
    </marker>
    <marker refX="0" refY="0" orient="auto" id="marker3587" style="overflow:visible">
      <path d="M 8.7185878,4.0337352 -2.2072895,0.01601326 8.7185884,-4.0017078 c -1.7454984,2.3720609 -1.7354408,5.6174519 -6e-7,8.035443 z" transform="scale(-1,-1)" id="path3589" style="font-size:12px;fill-rule:evenodd;stroke-width:0.625;stroke-linejoin:round" inkscape:connector-curvature="0"/>
    </marker>
    <radialGradient id="metalloid-1-8" cx="0.5" cy="0.5" r="0.5" fx="0.5" fy="0.5" gradientUnits="objectBoundingBox" spreadMethod="pad">
      <stop offset="0%" stop-color="white" id="stop41-3-5"/>
      <stop offset="100%" stop-color="#cccc99" id="stop43-8-7"/>
    </radialGradient>
    <radialGradient id="poormetal-1-1" cx="0.5" cy="0.5" r="0.5" fx="0.5" fy="0.5" gradientUnits="objectBoundingBox" spreadMethod="pad">
      <stop offset="0%" stop-color="white" id="stop51-3-8"/>
      <stop offset="100%" stop-color="#cccccc" id="stop53-87-9"/>
    </radialGradient>
    <marker refX="0" refY="0" orient="auto" id="marker3599" style="overflow:visible">
      <path d="M 8.7185878,4.0337352 -2.2072895,0.01601326 8.7185884,-4.0017078 c -1.7454984,2.3720609 -1.7354408,5.6174519 -6e-7,8.035443 z" transform="scale(-1,-1)" id="path3601" style="font-size:12px;fill-rule:evenodd;stroke-width:0.625;stroke-linejoin:round" inkscape:connector-curvature="0"/>
    </marker>
    <marker refX="0" refY="0" orient="auto" id="Arrow2Mend-02" style="overflow:visible">
      <path d="M 8.7185878,4.0337352 -2.2072895,0.01601326 8.7185884,-4.0017078 c -1.7454984,2.3720609 -1.7354408,5.6174519 -6e-7,8.035443 z" transform="scale(-1,-1)" id="path4011-48" style="font-size:12px;fill-rule:evenodd;stroke-width:0.625;stroke-linejoin:round" inkscape:connector-curvature="0"/>
    </marker>
    <marker refX="0" refY="0" orient="auto" id="marker3741" style="overflow:visible">
      <path d="M 8.7185878,4.0337352 -2.2072895,0.01601326 8.7185884,-4.0017078 c -1.7454984,2.3720609 -1.7354408,5.6174519 -6e-7,8.035443 z" transform="scale(-1,-1)" id="path3743" style="font-size:12px;fill-rule:evenodd;stroke-width:0.625;stroke-linejoin:round" inkscape:connector-curvature="0"/>
    </marker>
    <radialGradient r="101.75" fy="1910" fx="710" cy="1910" cx="710" gradientUnits="userSpaceOnUse" id="radialGradient3626-65" xlink:href="#metalloid-1-0" inkscape:collect="always"/>
    <radialGradient id="metalloid-1-0" cx="0.5" cy="0.5" r="0.5" fx="0.5" fy="0.5" gradientUnits="objectBoundingBox" spreadMethod="pad">
      <stop offset="0%" stop-color="white" id="stop41-3-9"/>
      <stop offset="100%" stop-color="#cccc99" id="stop43-8-0"/>
    </radialGradient>
    <radialGradient inkscape:collect="always" xlink:href="#poormetal-1-6" id="radialGradient3388-1-0" cx="710" cy="2310" fx="710" fy="2310" r="101.75" gradientUnits="userSpaceOnUse"/>
    <radialGradient id="poormetal-1-6" cx="0.5" cy="0.5" r="0.5" fx="0.5" fy="0.5" gradientUnits="objectBoundingBox" spreadMethod="pad">
      <stop offset="0%" stop-color="white" id="stop51-3-1"/>
      <stop offset="100%" stop-color="#cccccc" id="stop53-87-3"/>
    </radialGradient>
    <radialGradient id="halogen-7-9" cx="0.5" cy="0.5" r="0.5" fx="0.5" fy="0.5" gradientUnits="objectBoundingBox" spreadMethod="pad">
      <stop offset="0%" stop-color="white" id="stop46-4-3"/>
      <stop offset="100%" stop-color="#ffff99" id="stop48-0-44"/>
    </radialGradient>
    <marker refX="0" refY="0" orient="auto" id="marker3757" style="overflow:visible">
      <path d="M 8.7185878,4.0337352 -2.2072895,0.01601326 8.7185884,-4.0017078 c -1.7454984,2.3720609 -1.7354408,5.6174519 -6e-7,8.035443 z" transform="scale(-1,-1)" id="path3759" style="font-size:12px;fill-rule:evenodd;stroke-width:0.625;stroke-linejoin:round" inkscape:connector-curvature="0"/>
    </marker>
    <radialGradient inkscape:collect="always" xlink:href="#poormetal-0" id="radialGradient3386-6" cx="910" cy="2110" fx="910" fy="2110" r="101.75" gradientUnits="userSpaceOnUse"/>
    <radialGradient id="poormetal-0" xlink:href="#ball-1">
      <stop offset="0%" stop-color="white" id="stop51-6"/>
      <stop offset="100%" stop-color="#cccccc" id="stop53-6"/>
    </radialGradient>
    <radialGradient id="ball-1" fx="0.75" fy="0.25">
      <stop offset="0%" stop-color="white" id="stop11-84"/>
      <stop offset="100%" stop-color="grey" id="stop13-9"/>
    </radialGradient>
    <marker refX="0" refY="0" orient="auto" id="marker3768" style="overflow:visible">
      <path d="M 8.7185878,4.0337352 -2.2072895,0.01601326 8.7185884,-4.0017078 c -1.7454984,2.3720609 -1.7354408,5.6174519 -6e-7,8.035443 z" transform="scale(-1,-1)" id="path3770" style="font-size:12px;fill-rule:evenodd;stroke-width:0.625;stroke-linejoin:round" inkscape:connector-curvature="0"/>
    </marker>
    <marker refX="0" refY="0" orient="auto" id="marker3772" style="overflow:visible">
      <path d="M 8.7185878,4.0337352 -2.2072895,0.01601326 8.7185884,-4.0017078 c -1.7454984,2.3720609 -1.7354408,5.6174519 -6e-7,8.035443 z" transform="scale(-1,-1)" id="path3774" style="font-size:12px;fill-rule:evenodd;stroke-width:0.625;stroke-linejoin:round" inkscape:connector-curvature="0"/>
    </marker>
    <radialGradient inkscape:collect="always" xlink:href="#poormetal-0" id="radialGradient3390-6" cx="510" cy="2510" fx="510" fy="2510" r="101.75" gradientUnits="userSpaceOnUse"/>
    <radialGradient id="radialGradient3777" xlink:href="#ball-1">
      <stop offset="0%" stop-color="white" id="stop3779"/>
      <stop offset="100%" stop-color="#cccccc" id="stop3781"/>
    </radialGradient>
    <radialGradient id="radialGradient3783" fx="0.75" fy="0.25">
      <stop offset="0%" stop-color="white" id="stop3785"/>
      <stop offset="100%" stop-color="grey" id="stop3787"/>
    </radialGradient>
    <marker refX="0" refY="0" orient="auto" id="marker3789" style="overflow:visible">
      <path d="M 8.7185878,4.0337352 -2.2072895,0.01601326 8.7185884,-4.0017078 c -1.7454984,2.3720609 -1.7354408,5.6174519 -6e-7,8.035443 z" transform="scale(-1,-1)" id="path3791" style="font-size:12px;fill-rule:evenodd;stroke-width:0.625;stroke-linejoin:round" inkscape:connector-curvature="0"/>
    </marker>
    <radialGradient inkscape:collect="always" xlink:href="#poormetal-1-18" id="radialGradient3388-1-06" cx="710" cy="2310" fx="710" fy="2310" r="101.75" gradientUnits="userSpaceOnUse"/>
    <radialGradient id="poormetal-1-18" cx="0.5" cy="0.5" r="0.5" fx="0.5" fy="0.5" gradientUnits="objectBoundingBox" spreadMethod="pad">
      <stop offset="0%" stop-color="white" id="stop51-3-9"/>
      <stop offset="100%" stop-color="#cccccc" id="stop53-87-8"/>
    </radialGradient>
    <marker refX="0" refY="0" orient="auto" id="Arrow2Mend-41" style="overflow:visible">
      <path d="M 8.7185878,4.0337352 -2.2072895,0.01601326 8.7185884,-4.0017078 c -1.7454984,2.3720609 -1.7354408,5.6174519 -6e-7,8.035443 z" transform="scale(-1,-1)" id="path4011-43" style="font-size:12px;fill-rule:evenodd;stroke-width:0.625;stroke-linejoin:round" inkscape:connector-curvature="0"/>
    </marker>
    <radialGradient r="101.75" fy="2310" fx="710" cy="2310" cx="710" gradientUnits="userSpaceOnUse" id="radialGradient4168" xlink:href="#transition" inkscape:collect="always"/>
    <radialGradient id="actinide-349" cx="0.5" cy="0.5" r="0.5" fx="0.5" fy="0.5" gradientUnits="objectBoundingBox" spreadMethod="pad">
      <stop offset="0%" stop-color="white" id="stop16-65"/>
      <stop offset="100%" stop-color="#add5ff" id="stop18-10"/>
    </radialGradient>
    <radialGradient id="alkali-9" xlink:href="#ball-3">
      <stop offset="0%" stop-color="white" id="stop31-6"/>
      <stop offset="100%" stop-color="#ff6666" id="stop33-8"/>
    </radialGradient>
    <radialGradient id="ball-3" fx="0.75" fy="0.25">
      <stop offset="0%" stop-color="white" id="stop11-48"/>
      <stop offset="100%" stop-color="grey" id="stop13-49"/>
    </radialGradient>
    <radialGradient id="alkaline-2" cx="0.5" cy="0.5" r="0.5" fx="0.5" fy="0.5" gradientUnits="objectBoundingBox" spreadMethod="pad">
      <stop offset="0%" stop-color="white" id="stop36-5"/>
      <stop offset="100%" stop-color="#ffdead" id="stop38-5"/>
    </radialGradient>
    <radialGradient id="halogen-3" xlink:href="#ball-3">
      <stop offset="0%" stop-color="white" id="stop46-3"/>
      <stop offset="100%" stop-color="#ffff99" id="stop48-7"/>
    </radialGradient>
    <radialGradient id="radialGradient5196" fx="0.75" fy="0.25">
      <stop offset="0%" stop-color="white" id="stop5198"/>
      <stop offset="100%" stop-color="grey" id="stop5200"/>
    </radialGradient>
    <radialGradient id="metalloid-3" cx="0.5" cy="0.5" r="0.5" fx="0.5" fy="0.5" gradientUnits="objectBoundingBox" spreadMethod="pad">
      <stop offset="0%" stop-color="white" id="stop41-8"/>
      <stop offset="100%" stop-color="#cccc99" id="stop43-0"/>
    </radialGradient>
    <radialGradient id="noblegas-8" cx="40" cy="240" fx="40" fy="240" r="20" gradientUnits="userSpaceOnUse" spreadMethod="pad">
      <stop offset="0%" stop-color="white" id="stop26-0"/>
      <stop offset="100%" stop-color="#c0ffff" id="stop28-6"/>
    </radialGradient>
    <radialGradient id="poormetal-19" xlink:href="#ball-3">
      <stop offset="0%" stop-color="white" id="stop51-8"/>
      <stop offset="100%" stop-color="#cccccc" id="stop53-9"/>
    </radialGradient>
    <radialGradient id="radialGradient5214" fx="0.75" fy="0.25">
      <stop offset="0%" stop-color="white" id="stop5216"/>
      <stop offset="100%" stop-color="grey" id="stop5218"/>
    </radialGradient>
    <radialGradient id="transition-2" cx="40" cy="320" fx="40" fy="320" r="20" gradientUnits="userSpaceOnUse" spreadMethod="pad">
      <stop offset="0%" stop-color="white" id="stop61-2"/>
      <stop offset="100%" stop-color="#ffc0c0" id="stop63-8"/>
    </radialGradient>
    <radialGradient inkscape:collect="always" xlink:href="#actinide-349" id="radialGradient5365" gradientUnits="userSpaceOnUse" cx="40" cy="40" fx="40" fy="40" r="20"/>
    <radialGradient inkscape:collect="always" xlink:href="#alkali-9" id="radialGradient5367" gradientUnits="userSpaceOnUse" cx="40" cy="80" fx="40" fy="80" r="20"/>
    <radialGradient inkscape:collect="always" xlink:href="#alkaline-2" id="radialGradient5369" gradientUnits="userSpaceOnUse" cx="40" cy="120" fx="40" fy="120" r="20"/>
    <radialGradient inkscape:collect="always" xlink:href="#halogen-3" id="radialGradient5371" gradientUnits="userSpaceOnUse" cx="40" cy="160" fx="40" fy="160" r="20"/>
    <radialGradient inkscape:collect="always" xlink:href="#metalloid-3" id="radialGradient5373" gradientUnits="userSpaceOnUse" cx="40" cy="200" fx="40" fy="200" r="20"/>
    <radialGradient inkscape:collect="always" xlink:href="#noblegas-8" id="radialGradient5375" gradientUnits="userSpaceOnUse" spreadMethod="pad" cx="40" cy="240" fx="40" fy="240" r="20"/>
    <radialGradient inkscape:collect="always" xlink:href="#poormetal-19" id="radialGradient5377" gradientUnits="userSpaceOnUse" cx="40" cy="280" fx="40" fy="280" r="20"/>
    <radialGradient inkscape:collect="always" xlink:href="#transition-2" id="radialGradient5379" gradientUnits="userSpaceOnUse" spreadMethod="pad" cx="40" cy="320" fx="40" fy="320" r="20"/>
  </defs>
  <text id="text173-17" x="-796.39368" y="-203.72523">
    <tspan x="-686.39368" class="halflife" id="tspan181-2" style="font-size:30px;text-anchor:middle;font-family:'DejaVu Sans Condensed, sans-serif'"/>
  </text>
  <flowRoot xml:space="preserve" id="flowRoot3396" style="font-size:40px;font-style:normal;font-weight:normal;line-height:125%;letter-spacing:0px;word-spacing:0px;fill:#000000;fill-opacity:1;stroke:none;font-family:Sans" transform="translate(0,-159.67025)"><flowRegion id="flowRegion3398"><rect id="rect3400" width="96.163528" height="68.688232" x="-380.72906" y="92.27301"/></flowRegion><flowPara id="flowPara3402"/></flowRoot>  <g id="g3547" transform="translate(0,-159.67025)">
    <flowRoot style="font-size:40px;font-style:normal;font-weight:normal;line-height:125%;letter-spacing:0px;word-spacing:0px;fill:#000000;fill-opacity:1;stroke:none;font-family:Sans" id="flowRoot3539" xml:space="preserve"><flowRegion id="flowRegion3541"><rect y="455.33939" x="-578.94366" height="194.28958" width="278.67798" id="rect3543"/></flowRegion><flowPara id="flowPara3545"/></flowRoot>  </g>
  <flowRoot xml:space="preserve" id="flowRoot3553" style="font-size:40px;font-style:normal;font-weight:normal;line-height:125%;letter-spacing:0px;word-spacing:0px;fill:#000000;fill-opacity:1;stroke:none;font-family:Sans" transform="translate(0,-159.67025)"><flowRegion id="flowRegion3555"><rect id="rect3557" width="29.437815" height="41.21294" x="-594.64386" y="390.5762"/></flowRegion><flowPara id="flowPara3559"/></flowRoot>  <flowRoot xml:space="preserve" id="flowRoot3881" style="font-size:40px;font-style:normal;font-weight:normal;line-height:125%;letter-spacing:0px;word-spacing:0px;fill:#000000;fill-opacity:1;stroke:none;font-family:Sans" transform="translate(0,-159.67025)"><flowRegion id="flowRegion3883"><rect id="rect3885" width="227.65244" height="186.43948" x="-991.07306" y="1623.0393"/></flowRegion><flowPara id="flowPara3887"/></flowRoot>  <flowRoot xml:space="preserve" id="flowRoot3451" style="font-size:40px;font-style:normal;font-weight:normal;line-height:125%;letter-spacing:0px;word-spacing:0px;fill:#000000;fill-opacity:1;stroke:none;font-family:Sans" transform="translate(0,-159.67025)"><flowRegion id="flowRegion3453"><rect id="rect3455" width="1484.6154" height="261.53845" x="-119.23077" y="-226.15384"/></flowRegion><flowPara id="flowPara3457"/></flowRoot>  <rect x="5.0309739" y="357.33154" width="1572.6091" height="171.54898" class="background1" id="rect67" style="fill:#f5f5f5;stroke:none"/>
  <rect x="5.0309739" y="528.88068" width="1572.6091" height="171.54898" class="background0" id="rect69" style="fill:#ffffff;stroke:none"/>
  <rect x="5.0309739" y="700.42963" width="1572.6091" height="171.54898" class="background1" id="rect71" style="fill:#f5f5f5;stroke:none"/>
  <rect x="5.0309739" y="871.97876" width="1572.6091" height="171.54898" class="background0" id="rect73" style="fill:#ffffff;stroke:none"/>
  <rect x="5.0309739" y="1043.5275" width="1572.6091" height="171.54898" class="background1" id="rect75" style="fill:#f5f5f5;stroke:none"/>
  <rect x="5.0681596" y="1215.0764" width="1572.567" height="171.54898" class="background0" id="rect77" style="fill:#ffffff;stroke:none"/>
  <rect x="5.0309739" y="1386.6254" width="1572.6091" height="171.54898" class="background1" id="rect79" style="fill:#f5f5f5;stroke:none"/>
  <rect x="5.0309739" y="1558.1746" width="1572.6091" height="171.54898" class="background0" id="rect81" style="fill:#ffffff;stroke:none"/>
  <rect x="5.0309739" y="1729.7234" width="1572.6091" height="171.54898" class="background1" id="rect83" style="fill:#f5f5f5;stroke:none"/>
  <rect x="5.0309739" y="1899.2684" width="1572.6091" height="171.54898" class="background0" id="rect85" style="fill:#ffffff;stroke:none"/>
  <rect x="5.0309739" y="184.06706" width="1572.6091" height="171.54898" class="background0" id="rect89" style="fill:#ffffff;stroke:none"/>
  <text x="1564.4041" y="347.30927" class="SideKey" id="text95" style="font-size:34.24327469px;text-anchor:end;fill:#555555;font-family:'DejaVu Sans Light, sans-serif'">Protactinium</text>
  <text x="1564.4041" y="518.52582" class="SideKey" id="text97" style="font-size:34.24327469px;text-anchor:end;fill:#555555;font-family:'DejaVu Sans Light, sans-serif'">Thorium</text>
  <text x="1564.4041" y="689.74225" class="SideKey" id="text99" style="font-size:34.24327469px;text-anchor:end;fill:#555555;font-family:'DejaVu Sans Light, sans-serif'">Actinium</text>
  <text x="1564.4041" y="860.9585" class="SideKey" id="text101" style="font-size:34.24327469px;text-anchor:end;fill:#555555;font-family:'DejaVu Sans Light, sans-serif'">Radium</text>
  <text x="1564.4041" y="1034.1748" class="SideKey" id="text103" style="font-size:34.24327469px;text-anchor:end;fill:#555555;font-family:'DejaVu Sans Light, sans-serif'">Francium</text>
  <text x="1564.4041" y="1203.3911" class="SideKey" id="text105" style="font-size:34.24327469px;text-anchor:end;fill:#555555;font-family:'DejaVu Sans Light, sans-serif'">Radon</text>
  <text x="1564.4041" y="1374.6077" class="SideKey" id="text107" style="font-size:34.24327469px;text-anchor:end;fill:#555555;font-family:'DejaVu Sans Light, sans-serif'">Astatine</text>
  <text x="1564.4041" y="1545.824" class="SideKey" id="text109" style="font-size:34.24327469px;text-anchor:end;fill:#555555;font-family:'DejaVu Sans Light, sans-serif'">Polonium</text>
  <text x="1564.4041" y="1717.0403" class="SideKey" id="text111" style="font-size:34.24327469px;text-anchor:end;fill:#555555;font-family:'DejaVu Sans Light, sans-serif'">Bismuth</text>
  <text x="1564.4041" y="1888.2567" class="SideKey" id="text113" style="font-size:34.24327469px;text-anchor:end;fill:#555555;font-family:'DejaVu Sans Light, sans-serif'">Lead</text>
  <text x="1564.4041" y="2059.4734" class="SideKey" id="text115" style="font-size:34.24327469px;text-anchor:end;fill:#555555;font-family:'DejaVu Sans Light, sans-serif'">Thallium</text>
  <circle d="M 210,510 C 210,565.22847 165.22847,610 110,610 54.771525,610 10,565.22847 10,510 10,454.77153 54.771525,410 110,410 c 55.22847,0 100,44.77153 100,100 z" style="fill:url(#radialGradient3406);stroke:#000000;stroke-width:3.5" cx="110" cy="510" r="100" class="actinide" id="circle171" sodipodi:cx="110" sodipodi:cy="510" sodipodi:rx="100" sodipodi:ry="100" transform="matrix(0.85608186,0,0,0.85608186,244.02875,-168.33975)"/>
  <line x1="161.41415" y1="184.65379" x2="161.41415" y2="351.58972" id="line203" style="stroke:#000000;stroke-width:2.99628639;marker-end:url(#Arrow2Mend)"/>
  <text x="165.69455" y="270.2619" class="ab" id="text205" style="font-size:34.24327469px;font-style:italic;font-family:'Liberation Sans, sans-serif'">α</text>
  <circle d="m 410,710 c 0,55.22847 -44.77153,100 -100,100 -55.22847,0 -100,-44.77153 -100,-100 0,-55.22847 44.77153,-100 100,-100 55.22847,0 100,44.77153 100,100 z" style="fill:url(#radialGradient3402);stroke:#000000;stroke-width:3.5" cx="310" cy="710" r="100" class="actinide" id="circle207" sodipodi:cx="310" sodipodi:cy="710" sodipodi:rx="100" sodipodi:ry="100" transform="matrix(0.85608186,0,0,0.85608186,-103.97125,-166.33975)"/>
  <line x1="519.41418" y1="527.08661" x2="519.41418" y2="694.02264" id="line221" style="stroke:#000000;stroke-width:2.99628639;marker-end:url(#Arrow2Mend)"/>
  <text x="523.69458" y="612.69489" class="ab" id="text223" style="font-size:34.24327469px;font-style:italic;font-family:'Liberation Sans, sans-serif'">α</text>
  <circle d="m 410,1110 c 0,55.2285 -44.77153,100 -100,100 -55.22847,0 -100,-44.7715 -100,-100 0,-55.2285 44.77153,-100 100,-100 55.22847,0 100,44.7715 100,100 z" style="fill:url(#radialGradient3400);stroke:#000000;stroke-width:3.5" cx="310" cy="1110" r="100" class="alkaline" id="circle225" sodipodi:cx="310" sodipodi:cy="1110" sodipodi:rx="100" sodipodi:ry="100" transform="matrix(0.85608186,0,0,0.85608186,254.02875,-162.33975)"/>
  <line x1="698.63049" y1="1727.6011" x2="698.63049" y2="1894.5372" id="line311" style="stroke:#000000;stroke-width:2.99628639;marker-end:url(#Arrow2Mend)"/>
  <text x="702.91089" y="1813.2092" class="ab" id="text313" style="font-size:34.24327469px;font-style:italic;font-family:'Liberation Sans, sans-serif'">α</text>
  <circle d="m 610,2510 c 0,55.2285 -44.77153,100 -100,100 -55.22847,0 -100,-44.7715 -100,-100 0,-55.2285 44.77153,-100 100,-100 55.22847,0 100,44.7715 100,100 z" style="fill:url(#radialGradient3390);stroke:#000000;stroke-width:3.5" cx="510" cy="2510" r="100" class="poormetal" id="circle315" sodipodi:cx="510" sodipodi:cy="2510" sodipodi:rx="100" sodipodi:ry="100" transform="matrix(0.85608186,0,0,0.85608186,262.02875,-164.33975)"/>
  <line x1="757.41235" y1="1579.6438" x2="804.49683" y2="1532.5593" id="line329" style="stroke:#000000;stroke-width:2.99628639;marker-end:url(#Arrow2Mend)"/>
  <text x="771.67786" y="1591.0608" class="ab" id="text331" style="font-size:34.24327469px;font-style:italic;font-family:'Liberation Sans, sans-serif'">β⁻</text>
  <circle d="m 810,2310 c 0,55.2285 -44.77153,100 -100,100 -55.22847,0 -100,-44.7715 -100,-100 0,-55.2285 44.77153,-100 100,-100 55.22847,0 100,44.7715 100,100 z" style="fill:url(#radialGradient3388);stroke:#000000;stroke-width:3.5" cx="710" cy="2310" r="100" class="poormetal" id="circle333" sodipodi:cx="710" sodipodi:cy="2310" sodipodi:rx="100" sodipodi:ry="100" transform="matrix(0.85608186,0,0,0.85608186,-87.97125,-166.33975)"/>
  <line x1="580.62872" y1="1750.4275" x2="627.7132" y2="1703.343" id="line347" style="stroke:#000000;stroke-width:2.99628639;marker-end:url(#Arrow2Mend)"/>
  <text x="596.89423" y="1759.8445" class="ab" id="text349" style="font-size:34.24327469px;font-style:italic;font-family:'Liberation Sans, sans-serif'">β⁻</text>
  <circle d="m 1010,2110 c 0,55.2285 -44.77153,100 -100,100 -55.22847,0 -100,-44.7715 -100,-100 0,-55.2285 44.77153,-100 100,-100 55.22847,0 100,44.7715 100,100 z" style="fill:url(#radialGradient3386);stroke:#000000;stroke-width:3.5" cx="910" cy="2110" r="100" class="poormetal" id="circle351" sodipodi:cx="910" sodipodi:cy="2110" sodipodi:rx="100" sodipodi:ry="100" transform="matrix(0.85608186,0,0,0.85608186,-81.97125,-164.33975)"/>
  <line x1="697.06323" y1="1383.6011" x2="697.06323" y2="1550.5371" id="line365" style="stroke:#000000;stroke-width:2.99628639;marker-end:url(#Arrow2Mend)"/>
  <text x="701.34369" y="1469.2092" class="ab" id="text367" style="font-size:34.24327469px;font-style:italic;font-family:'Liberation Sans, sans-serif'">α</text>
  <circle d="m 810,1910 c 0,55.2285 -44.77153,100 -100,100 -55.22847,0 -100,-44.7715 -100,-100 0,-55.2285 44.77153,-100 100,-100 55.22847,0 100,44.7715 100,100 z" style="fill:url(#radialGradient3382);stroke:#000000;stroke-width:3.5" cx="710" cy="1910" r="100" class="metalloid" id="circle385" sodipodi:cx="710" sodipodi:cy="1910" sodipodi:rx="100" sodipodi:ry="100" transform="matrix(0.85608186,0,0,0.85608186,-87.97125,-164.33975)"/>
  <line x1="519.84686" y1="1554.3848" x2="519.84686" y2="1721.3206" id="line399" style="stroke:#000000;stroke-width:2.99628639;marker-end:url(#Arrow2Mend)"/>
  <text x="524.12732" y="1639.9929" class="ab" id="text401" style="font-size:34.24327469px;font-style:italic;font-family:'Liberation Sans, sans-serif'">α</text>
  <g id="g3579" transform="matrix(0.85608186,0,0,0.85608186,900.82695,218.79742)">
    <text y="677.84357" x="-556.90369" id="text173-4-7" sodipodi:linespacing="125%" style="line-height:125%">
      <tspan style="font-size:90px;font-style:normal;font-variant:normal;font-weight:bold;font-stretch:normal;text-align:start;line-height:125%;writing-mode:lr-tb;text-anchor:start;stroke:none;font-family:Sans;-inkscape-font-specification:Sans Bold" id="tspan179-3-4" class="symbol" x="-476.90366">Ra</tspan>
    </text>
    <text y="124.01302" x="-559.7132" id="text173-1-1-2">
      <tspan style="font-size:32px;letter-spacing:-3px;text-anchor:end;font-family:'DejaVu Sans Condensed, sans-serif'" id="tspan175-7-2-7" class="su" y="639.013" x="-479.71317">226</tspan>
    </text>
    <text style="font-size:11.59958458px" transform="scale(0.96663206,1.0345198)" y="152.84915" x="-575.80762" id="text173-8-3-7">
      <tspan style="font-size:30.93222618px;letter-spacing:-2.89989614px;text-anchor:end;font-family:'DejaVu Sans Condensed, sans-serif'" id="tspan175-8-4-9" class="su" y="650.66479" x="-498.47708">88</tspan>
    </text>
    <text id="text3265-1-3" y="719.40643" x="-559.41437" style="font-size:12px">
      <tspan id="tspan3267-13-1" style="font-size:27px;text-anchor:middle;font-family:'DejaVu Sans Condensed, sans-serif'" class="halflife" dy="0 0 0 0 0 0 0 0 0 0 0" x="-449.4144">1602 Years</tspan>
    </text>
  </g>
  <g id="g3649" transform="matrix(0.85608186,0,0,0.85608186,599.9496,-86.976877)">
    <g transform="translate(-97.055836,-44.350912)" id="g3597-9">
      <text id="text173-4-8" x="-518.72345" y="677.05652" sodipodi:linespacing="125%" style="line-height:125%">
        <tspan x="-438.72345" class="symbol" id="tspan179-3-6" style="font-size:90px;font-style:normal;font-variant:normal;font-weight:bold;font-stretch:normal;text-align:start;line-height:125%;writing-mode:lr-tb;text-anchor:start;stroke:none;font-family:Sans;-inkscape-font-specification:Sans Bold">Th</tspan>
      </text>
      <text id="text173-1-1-5" x="-521.53296" y="123.22596">
        <tspan x="-441.53296" y="638.22595" class="su" id="tspan175-7-2-0" style="font-size:32px;letter-spacing:-3px;text-anchor:end;font-family:'DejaVu Sans Condensed, sans-serif'">234</tspan>
      </text>
      <text id="text173-8-3-2" x="-536.30945" y="152.08835" transform="scale(0.96663206,1.0345198)" style="font-size:11.59958458px">
        <tspan x="-458.97888" y="649.90399" class="su" id="tspan175-8-4-8" style="font-size:30.93222618px;letter-spacing:-2.89989614px;text-anchor:end;font-family:'DejaVu Sans Condensed, sans-serif'">90</tspan>
      </text>
      <text x="-525.57037" y="718.61938" id="text3265-1-6" style="font-size:12px">
        <tspan x="-415.5704" class="halflife" style="font-size:27px;text-anchor:middle;font-family:'DejaVu Sans Condensed, sans-serif'" id="tspan3267-13-0">27 Days</tspan>
      </text>
    </g>
    <text xml:space="preserve" style="font-size:46.72450256px;font-style:normal;font-weight:normal;line-height:125%;letter-spacing:0px;word-spacing:0px;fill:#000000;fill-opacity:1;stroke:none;font-family:Sans" x="-551.69128" y="696.02679" id="text3336" sodipodi:linespacing="125%"><tspan sodipodi:role="line" id="tspan3338" style="font-size:26.99508286px;font-family:'DejaVu Sans Condensed, sans-serif'" x="-551.69128" y="696.02679"/></text>
  </g>
  <g id="g3702" transform="matrix(0.85608186,0,0,0.85608186,778.26166,-191.81369)">
    <g transform="translate(-66.294324,-123.6388)" id="g3579-2">
      <text id="text173-4-7-4" x="-556.90369" y="677.84357" sodipodi:linespacing="125%" style="line-height:125%">
        <tspan x="-476.90366" class="symbol" id="tspan179-3-4-8" style="font-size:90px;font-style:normal;font-variant:normal;font-weight:bold;font-stretch:normal;text-align:start;line-height:125%;writing-mode:lr-tb;text-anchor:start;stroke:none;font-family:Sans;-inkscape-font-specification:Sans Bold">Pa</tspan>
      </text>
      <text id="text173-1-1-2-6" x="-559.7132" y="124.01302">
        <tspan x="-479.71317" y="639.013" class="su" id="tspan175-7-2-7-5" style="font-size:32px;letter-spacing:-3px;text-anchor:end;font-family:'DejaVu Sans Condensed, sans-serif'">234</tspan>
      </text>
      <text id="text173-8-3-7-0" x="-575.80762" y="152.84915" transform="scale(0.96663206,1.0345198)" style="font-size:11.59958458px">
        <tspan x="-498.47708" y="650.66479" class="su" id="tspan175-8-4-9-9" style="font-size:30.93222618px;letter-spacing:-2.89989614px;text-anchor:end;font-family:'DejaVu Sans Condensed, sans-serif'">91</tspan>
      </text>
      <text x="-559.41437" y="719.40643" id="text3265-1-3-0" style="font-size:12px">
        <tspan x="-449.4144" class="halflife" style="font-size:27px;text-anchor:middle;font-family:'DejaVu Sans Condensed, sans-serif'" id="tspan3267-13-1-0">27 Days</tspan>
      </text>
    </g>
  </g>
  <g id="g3965" transform="matrix(0.85608186,0,0,0.85608186,1021.4563,189.16376)">
    <text y="1708.8809" x="-479.20569" id="text173-4-7-8-6" sodipodi:linespacing="125%" style="line-height:125%">
      <tspan style="font-size:90px;font-style:normal;font-variant:normal;font-weight:bold;font-stretch:normal;text-align:start;line-height:125%;writing-mode:lr-tb;text-anchor:start;stroke:none;font-family:Sans;-inkscape-font-specification:Sans Bold" id="tspan179-3-4-2-1" class="symbol" x="-399.20563">Bi</tspan>
    </text>
    <text y="1155.0503" x="-482.0152" id="text173-1-1-2-9-5">
      <tspan style="font-size:32px;letter-spacing:-3px;text-anchor:end;font-family:'DejaVu Sans Condensed, sans-serif'" id="tspan175-7-2-7-1-4" class="su" y="1670.0503" x="-402.01514">214</tspan>
    </text>
    <text style="font-size:11.59958458px" transform="scale(0.96663206,1.0345198)" y="1149.4828" x="-495.42746" id="text173-8-3-7-35-2">
      <tspan style="font-size:30.93222618px;letter-spacing:-2.89989614px;text-anchor:end;font-family:'DejaVu Sans Condensed, sans-serif'" id="tspan175-8-4-9-98-0" class="su" y="1647.2985" x="-418.09695">83</tspan>
    </text>
    <text id="text3265-1-3-40-9" y="1753.9009" x="-489.5665" style="font-size:12px">
      <tspan id="tspan3267-13-1-76-7" style="font-size:27px;text-anchor:middle;font-family:'DejaVu Sans Condensed, sans-serif'" class="halflife" dy="0 0 0 0 0 0 0 0 0 0 0 0 0 0 0" x="-379.5665">20 Minutes</tspan>
    </text>
    <text sodipodi:linespacing="125%" id="text3931" y="1772.1909" x="-412.12939" style="font-size:40px;font-style:normal;font-weight:normal;line-height:125%;letter-spacing:0px;word-spacing:0px;fill:#000000;fill-opacity:1;stroke:none;font-family:Sans" xml:space="preserve"><tspan y="1772.1909" x="-412.12939" style="font-size:25px;font-family:'DejaVu Sans Condensed, sans-serif'" id="tspan3933" sodipodi:role="line"/></text>
  </g>
  <g id="g3579-0-3" transform="matrix(0.85608186,0,0,0.85608186,-74.147076,1041.2811)">
    <g id="g4045" transform="translate(1042.0237,-204.17714)">
      <text id="text173-4-7-6-7" x="-456.81512" y="715.13147" sodipodi:linespacing="125%" style="line-height:125%">
        <tspan x="-376.81509" class="symbol" id="tspan179-3-4-6-2" style="font-size:90px;font-style:normal;font-variant:normal;font-weight:bold;font-stretch:normal;text-align:start;line-height:125%;writing-mode:lr-tb;text-anchor:start;stroke:none;font-family:Sans;-inkscape-font-specification:Sans Bold">Po</tspan>
      </text>
      <text id="text173-1-1-2-1-6" x="-459.62463" y="161.30092">
        <tspan x="-379.6246" y="676.3009" class="su" id="tspan175-7-2-7-8-0" style="font-size:32px;letter-spacing:-3px;text-anchor:end;font-family:'DejaVu Sans Condensed, sans-serif'">218</tspan>
      </text>
      <text id="text173-8-3-7-4-1" x="-472.26401" y="188.89282" transform="scale(0.96663206,1.0345198)" style="font-size:11.59958458px">
        <tspan x="-394.93347" y="686.7085" class="su" id="tspan175-8-4-9-96-6" style="font-size:30.93222618px;letter-spacing:-2.89989614px;text-anchor:end;font-family:'DejaVu Sans Condensed, sans-serif'">84</tspan>
      </text>
      <text x="-457.99826" y="760.03931" id="text3265-1-3-3-5" style="font-size:12px">
        <tspan x="-347.99826" class="halflife" style="font-size:27px;text-anchor:middle;font-family:'DejaVu Sans Condensed, sans-serif'" id="tspan3267-13-1-7-7">3.1 Minutes</tspan>
      </text>
      <text sodipodi:linespacing="125%" id="text4019" y="778.33575" x="-396.80231" style="font-size:40px;font-style:normal;font-weight:normal;line-height:125%;letter-spacing:0px;word-spacing:0px;fill:#000000;fill-opacity:1;stroke:none;font-family:Sans" xml:space="preserve"><tspan y="778.33575" x="-396.80231" style="font-size:26.99510002px;font-family:'DejaVu Sans Condensed, sans-serif'" id="tspan4021" sodipodi:role="line"/></text>
    </g>
  </g>
  <g id="g4151" transform="matrix(0.85608186,0,0,0.85608186,760.43635,76.02282)">
    <text y="2037.5885" x="-389.40131" id="text173-4-7-6-7-1" sodipodi:linespacing="125%" style="line-height:125%">
      <tspan style="font-size:90px;font-style:normal;font-variant:normal;font-weight:bold;font-stretch:normal;text-align:start;line-height:125%;writing-mode:lr-tb;text-anchor:start;stroke:none;font-family:Sans;-inkscape-font-specification:Sans Bold" id="tspan179-3-4-6-2-2" class="symbol" x="-309.40128">Pb</tspan>
    </text>
    <text y="1483.7581" x="-392.21082" id="text173-1-1-2-1-6-0">
      <tspan style="font-size:32px;letter-spacing:-3px;text-anchor:end;font-family:'DejaVu Sans Condensed, sans-serif'" id="tspan175-7-2-7-8-0-0" class="su" y="1998.7579" x="-312.21078">214</tspan>
    </text>
    <text style="font-size:11.59958458px" transform="scale(0.96663206,1.0345198)" y="1467.2222" x="-402.52307" id="text173-8-3-7-4-1-1">
      <tspan style="font-size:30.93222618px;letter-spacing:-2.89989614px;text-anchor:end;font-family:'DejaVu Sans Condensed, sans-serif'" id="tspan175-8-4-9-96-6-4" class="su" y="1965.0378" x="-325.19254">82</tspan>
    </text>
    <text id="text3265-1-3-3-5-6" y="2073.1514" x="-390.24823">
      <tspan id="tspan3267-13-1-7-7-0" style="font-size:27px;text-anchor:middle;font-family:'DejaVu Sans Condensed, sans-serif'" class="halflife" x="-280.24823">26.8</tspan>
    </text>
    <text xml:space="preserve" style="font-size:40px;font-style:normal;font-weight:normal;text-align:center;line-height:125%;letter-spacing:0px;word-spacing:0px;text-anchor:middle;fill:#000000;fill-opacity:1;stroke:none;font-family:Sans" x="-280.99957" y="2100.7927" id="text4019-7" sodipodi:linespacing="125%"><tspan sodipodi:role="line" id="tspan4021-1" style="font-size:24.7990303px;text-align:center;text-anchor:middle;font-family:'DejaVu Sans Condensed, sans-serif'" x="-280.99957" y="2100.7927">Minutes</tspan></text>
  </g>
  <g id="g3579-0-7" transform="matrix(0.85608186,0,0,0.85608186,1085.6509,1415.9386)">
    <text y="677.84357" x="-556.90369" id="text173-4-7-6-77" sodipodi:linespacing="125%" style="line-height:125%">
      <tspan style="font-size:90px;font-style:normal;font-variant:normal;font-weight:bold;font-stretch:normal;text-align:start;line-height:125%;writing-mode:lr-tb;text-anchor:start;stroke:none;font-family:Sans;-inkscape-font-specification:Sans Bold" id="tspan179-3-4-6-7" class="symbol" x="-476.90366">Tl</tspan>
    </text>
    <text y="124.01302" x="-559.7132" id="text173-1-1-2-1-3">
      <tspan style="font-size:32px;letter-spacing:-3px;text-anchor:end;font-family:'DejaVu Sans Condensed, sans-serif'" id="tspan175-7-2-7-8-3" class="su" y="639.013" x="-479.71317">210</tspan>
    </text>
    <text style="font-size:11.59958458px" transform="scale(0.96663206,1.0345198)" y="152.84915" x="-575.80762" id="text173-8-3-7-4-5">
      <tspan style="font-size:30.93222618px;letter-spacing:-2.89989614px;text-anchor:end;font-family:'DejaVu Sans Condensed, sans-serif'" id="tspan175-8-4-9-96-9" class="su" y="650.66479" x="-498.47708">81</tspan>
    </text>
    <text id="text3265-1-3-3-9" y="719.40643" x="-561.75061">
      <tspan id="tspan3267-13-1-7-8" style="font-size:27px;text-anchor:middle;font-family:'DejaVu Sans Condensed, sans-serif'" class="halflife" x="-451.75061">1.3 Minutes</tspan>
    </text>
  </g>
  <line x1="217.6355" y1="374.53827" x2="264.72" y2="327.4538" id="line185-2" style="stroke:#000000;stroke-width:2.99628639;marker-end:url(#Arrow2Mend)"/>
  <text x="239.90103" y="381.9552" class="ab" id="text187-3" style="font-size:34.24327469px;font-style:italic;font-family:'Liberation Sans, sans-serif'">β⁻</text>
  <text xml:space="preserve" style="font-size:40px;font-style:normal;font-weight:normal;line-height:125%;letter-spacing:0px;word-spacing:0px;fill:#000000;fill-opacity:1;stroke:none;font-family:Sans" x="304.65686" y="333.87891" id="text3332" sodipodi:linespacing="125%"><tspan sodipodi:role="line" id="tspan3334" style="font-size:23.11000061px;font-family:'DejaVu Sans Condensed, sans-serif'" x="304.65686" y="333.87891"/></text>
  <text xml:space="preserve" style="font-size:40px;font-style:normal;font-weight:normal;line-height:125%;letter-spacing:0px;word-spacing:0px;fill:#000000;fill-opacity:1;stroke:none;font-family:Sans" x="659.65686" y="1705.8789" id="text3344" sodipodi:linespacing="125%"><tspan sodipodi:role="line" id="tspan3346" style="font-size:22px;font-family:'DejaVu Sans Condensed, sans-serif'" x="659.65686" y="1705.8789"/></text>
  <circle d="m 610,1710 c 0,55.2285 -44.77153,100 -100,100 -55.22847,0 -100,-44.7715 -100,-100 0,-55.2285 44.77153,-100 100,-100 55.22847,0 100,44.7715 100,100 z" style="fill:url(#radialGradient3375);stroke:#000000;stroke-width:3.5" cx="510" cy="1710" r="100" class="halogen" id="circle279-5" sodipodi:cx="510" sodipodi:cy="1710" sodipodi:rx="100" sodipodi:ry="100" transform="matrix(0.85608186,0,0,0.85608186,259.0551,-166.02102)"/>
  <g id="g3579-0-5" transform="matrix(0.85608186,0,0,0.85608186,1082.6309,726.18004)">
    <text y="677.84357" x="-556.90369" id="text173-4-7-6-1" sodipodi:linespacing="125%" style="line-height:125%">
      <tspan style="font-size:90px;font-style:normal;font-variant:normal;font-weight:bold;font-stretch:normal;text-align:start;line-height:125%;writing-mode:lr-tb;text-anchor:start;stroke:none;font-family:Sans;-inkscape-font-specification:Sans Bold" id="tspan179-3-4-6-71" class="symbol" x="-476.90366">At</tspan>
    </text>
    <text y="124.01302" x="-559.7132" id="text173-1-1-2-1-1">
      <tspan style="font-size:32px;letter-spacing:-3px;text-anchor:end;font-family:'DejaVu Sans Condensed, sans-serif'" id="tspan175-7-2-7-8-5" class="su" y="639.013" x="-479.71317">218</tspan>
    </text>
    <text style="font-size:11.59958458px" transform="scale(0.96663206,1.0345198)" y="152.84915" x="-575.80762" id="text173-8-3-7-4-2">
      <tspan style="font-size:30.93222618px;letter-spacing:-2.89989614px;text-anchor:end;font-family:'DejaVu Sans Condensed, sans-serif'" id="tspan175-8-4-9-96-7" class="su" y="650.66479" x="-498.47708">85</tspan>
    </text>
    <text id="text3265-1-3-3-6" y="714.73395" x="-561.75061" style="font-size:12px">
      <tspan id="tspan3267-13-1-7-1" style="font-size:27px;text-anchor:middle;font-family:'DejaVu Sans Condensed, sans-serif'" class="halflife" x="-451.75061">1.5</tspan>
    </text>
  </g>
  <text xml:space="preserve" style="font-size:40px;font-style:normal;font-weight:normal;line-height:125%;letter-spacing:0px;word-spacing:0px;fill:#000000;fill-opacity:1;stroke:none;font-family:Sans" x="653.65686" y="1359.8789" id="text3418" sodipodi:linespacing="125%"><tspan sodipodi:role="line" id="tspan3420" style="font-size:23.11000061px;font-family:'DejaVu Sans Condensed, sans-serif'" x="653.65686" y="1359.8789">Seconds</tspan></text>
  <circle d="m 810,2310 c 0,55.2285 -44.77153,100 -100,100 -55.22847,0 -100,-44.7715 -100,-100 0,-55.2285 44.77153,-100 100,-100 55.22847,0 100,44.7715 100,100 z" style="fill:url(#radialGradient3388-1);stroke:#000000;stroke-width:3.5" cx="710" cy="2310" r="100" class="poormetal" id="circle333-50" sodipodi:cx="710" sodipodi:cy="2310" sodipodi:rx="100" sodipodi:ry="100" transform="matrix(0.85608186,0,0,0.85608186,264.83339,-162.08766)"/>
  <g id="g4151-8" transform="matrix(0.85608186,0,0,0.85608186,1113.241,88.27484)">
    <text y="2037.5885" x="-389.40131" id="text173-4-7-6-7-1-6" sodipodi:linespacing="125%" style="line-height:125%">
      <tspan style="font-size:90px;font-style:normal;font-variant:normal;font-weight:bold;font-stretch:normal;text-align:start;line-height:125%;writing-mode:lr-tb;text-anchor:start;stroke:none;font-family:Sans;-inkscape-font-specification:Sans Bold" id="tspan179-3-4-6-2-2-0" class="symbol" x="-309.40128">Pb</tspan>
    </text>
    <text y="1483.7581" x="-392.21082" id="text173-1-1-2-1-6-0-24">
      <tspan style="font-size:32px;letter-spacing:-3px;text-anchor:end;font-family:'DejaVu Sans Condensed, sans-serif'" id="tspan175-7-2-7-8-0-0-8" class="su" y="1998.7579" x="-312.21078">210</tspan>
    </text>
    <text style="font-size:11.59958458px" transform="scale(0.96663206,1.0345198)" y="1467.2222" x="-402.52307" id="text173-8-3-7-4-1-1-6">
      <tspan style="font-size:30.93222618px;letter-spacing:-2.89989614px;text-anchor:end;font-family:'DejaVu Sans Condensed, sans-serif'" id="tspan175-8-4-9-96-6-4-5" class="su" y="1965.0378" x="-325.19254">82</tspan>
    </text>
    <text id="text3265-1-3-3-5-6-0" y="2073.1514" x="-390.24823">
      <tspan id="tspan3267-13-1-7-7-0-9" style="font-size:27px;text-anchor:middle;font-family:'DejaVu Sans Condensed, sans-serif'" class="halflife" x="-280.24823"/>
    </text>
    <text xml:space="preserve" style="font-size:40px;font-style:normal;font-weight:normal;text-align:center;line-height:125%;letter-spacing:0px;word-spacing:0px;text-anchor:middle;fill:#000000;fill-opacity:1;stroke:none;font-family:Sans" x="-280.99957" y="2082.1033" id="text4019-7-0" sodipodi:linespacing="125%"><tspan sodipodi:role="line" id="tspan4021-1-0" style="font-size:25px;text-align:center;text-anchor:middle;font-family:'DejaVu Sans Condensed, sans-serif'" x="-280.99957" y="2082.1033">22.3 Years</tspan></text>
  </g>
  <circle d="m 810,1910 c 0,55.2285 -44.77153,100 -100,100 -55.22847,0 -100,-44.7715 -100,-100 0,-55.2285 44.77153,-100 100,-100 55.22847,0 100,44.7715 100,100 z" style="fill:url(#radialGradient3626);stroke:#000000;stroke-width:3.5" cx="710" cy="1910" r="100" class="metalloid" id="circle385-0" sodipodi:cx="710" sodipodi:cy="1910" sodipodi:rx="100" sodipodi:ry="100" transform="matrix(0.85608186,0,0,0.85608186,261.83873,-165.23739)"/>
  <g id="g3579-0-3-6" transform="matrix(0.85608186,0,0,0.85608186,275.66289,1040.3834)">
    <g id="g4045-6" transform="translate(1042.0237,-204.17714)">
      <text id="text173-4-7-6-7-18" x="-456.81512" y="715.13147" sodipodi:linespacing="125%" style="line-height:125%">
        <tspan x="-376.81509" class="symbol" id="tspan179-3-4-6-2-4" style="font-size:90px;font-style:normal;font-variant:normal;font-weight:bold;font-stretch:normal;text-align:start;line-height:125%;writing-mode:lr-tb;text-anchor:start;stroke:none;font-family:Sans;-inkscape-font-specification:Sans Bold">Po</tspan>
      </text>
      <text id="text173-1-1-2-1-6-9" x="-459.62463" y="161.30092">
        <tspan x="-379.6246" y="676.3009" class="su" id="tspan175-7-2-7-8-0-6" style="font-size:32px;letter-spacing:-3px;text-anchor:end;font-family:'DejaVu Sans Condensed, sans-serif'">214</tspan>
      </text>
      <text id="text173-8-3-7-4-1-3" x="-472.26401" y="188.89282" transform="scale(0.96663206,1.0345198)" style="font-size:11.59958458px">
        <tspan x="-394.93347" y="686.7085" class="su" id="tspan175-8-4-9-96-6-7" style="font-size:30.93222618px;letter-spacing:-2.89989614px;text-anchor:end;font-family:'DejaVu Sans Condensed, sans-serif'">84</tspan>
      </text>
      <text x="-455.66205" y="750.69434" id="text3265-1-3-3-5-8">
        <tspan x="-345.66205" class="halflife" style="font-size:27px;text-anchor:middle;font-family:'DejaVu Sans Condensed, sans-serif'" id="tspan3267-13-1-7-7-8">0.1643</tspan>
      </text>
      <text sodipodi:linespacing="125%" id="text4019-2" y="778.33575" x="-396.80231" style="font-size:40px;font-style:normal;font-weight:normal;line-height:125%;letter-spacing:0px;word-spacing:0px;fill:#000000;fill-opacity:1;stroke:none;font-family:Sans" xml:space="preserve"><tspan y="778.33575" x="-396.80231" style="font-size:26.99508286px;font-family:'DejaVu Sans Condensed, sans-serif'" id="tspan4021-9" sodipodi:role="line">Seconds</tspan></text>
    </g>
  </g>
  <circle d="m 410,710 c 0,55.22847 -44.77153,100 -100,100 -55.22847,0 -100,-44.77153 -100,-100 0,-55.22847 44.77153,-100 100,-100 55.22847,0 100,44.77153 100,100 z" style="fill:url(#radialGradient3705);stroke:#000000;stroke-width:3.5" cx="310" cy="710" r="100" class="actinide" id="circle207-3" sodipodi:cx="310" sodipodi:cy="710" sodipodi:rx="100" sodipodi:ry="100" transform="matrix(0.85608186,0,0,0.85608186,252.27147,-165.93916)"/>
  <g id="g3649-6" transform="matrix(0.85608186,0,0,0.85608186,956.19235,-86.576287)">
    <g transform="translate(-97.055836,-44.350912)" id="g3597-9-1">
      <text id="text173-4-8-5" x="-518.72345" y="677.05652" sodipodi:linespacing="125%" style="line-height:125%">
        <tspan x="-438.72345" class="symbol" id="tspan179-3-6-4" style="font-size:90px;font-style:normal;font-variant:normal;font-weight:bold;font-stretch:normal;text-align:start;line-height:125%;writing-mode:lr-tb;text-anchor:start;stroke:none;font-family:Sans;-inkscape-font-specification:Sans Bold">Th</tspan>
      </text>
      <text id="text173-1-1-5-2" x="-521.53296" y="123.22596">
        <tspan x="-441.53296" y="638.22595" class="su" id="tspan175-7-2-0-0" style="font-size:32px;letter-spacing:-3px;text-anchor:end;font-family:'DejaVu Sans Condensed, sans-serif'">230</tspan>
      </text>
      <text id="text173-8-3-2-9" x="-536.30945" y="152.08835" transform="scale(0.96663206,1.0345198)" style="font-size:11.59958458px">
        <tspan x="-458.97888" y="649.90399" class="su" id="tspan175-8-4-8-7" style="font-size:30.93222618px;letter-spacing:-2.89989614px;text-anchor:end;font-family:'DejaVu Sans Condensed, sans-serif'">90</tspan>
      </text>
      <text x="-523.23413" y="713.9469" id="text3265-1-6-3" style="font-size:12px">
        <tspan x="-413.23419" class="halflife" style="font-size:27px;text-anchor:middle;font-family:'DejaVu Sans Condensed, sans-serif'" id="tspan3267-13-0-7">75,380</tspan>
      </text>
    </g>
    <text xml:space="preserve" style="font-size:46.72450256px;font-style:normal;font-weight:normal;line-height:125%;letter-spacing:0px;word-spacing:0px;fill:#000000;fill-opacity:1;stroke:none;font-family:Sans" x="-542.34631" y="696.02679" id="text3336-2" sodipodi:linespacing="125%"><tspan sodipodi:role="line" id="tspan3338-6" style="font-size:26.99508286px;font-family:'DejaVu Sans Condensed, sans-serif'" x="-542.34631" y="696.02679"/></text>
  </g>
  <line x1="518.448" y1="182.13036" x2="518.448" y2="349.06641" id="line221-5" style="stroke:#000000;stroke-width:2.99628639;marker-end:url(#Arrow2Mend)"/>
  <text x="522.72839" y="267.73859" class="ab" id="text223-7" style="font-size:34.24327469px;font-style:italic;font-family:'Liberation Sans, sans-serif'">α</text>
  <line x1="519.65686" y1="872.66266" x2="519.65686" y2="1039.5986" id="line221-7" style="stroke:#000000;stroke-width:2.99628639;marker-end:url(#Arrow2Mend)"/>
  <text x="523.93726" y="958.271" class="ab" id="text223-3" style="font-size:34.24327469px;font-style:italic;font-family:'Liberation Sans, sans-serif'">α</text>
  <circle d="m 410,1110 c 0,55.2285 -44.77153,100 -100,100 -55.22847,0 -100,-44.7715 -100,-100 0,-55.2285 44.77153,-100 100,-100 55.22847,0 100,44.7715 100,100 z" style="fill:url(#radialGradient3400-0);fill-opacity:1;stroke:#000000;stroke-width:3.5" cx="310" cy="1110" r="100" class="alkaline" id="circle225-3" sodipodi:cx="310" sodipodi:cy="1110" sodipodi:rx="100" sodipodi:ry="100" transform="matrix(0.85608186,0,0,0.85608186,254.27147,179.23633)"/>
  <g id="g3579-5" transform="matrix(0.85608186,0,0,0.85608186,901.06965,562.3735)">
    <text y="677.84357" x="-556.90369" id="text173-4-7-9" sodipodi:linespacing="125%" style="line-height:125%">
      <tspan style="font-size:90px;font-style:normal;font-variant:normal;font-weight:bold;font-stretch:normal;text-align:start;line-height:125%;writing-mode:lr-tb;text-anchor:start;stroke:none;font-family:Sans;-inkscape-font-specification:Sans Bold" id="tspan179-3-4-9" class="symbol" x="-476.90366">Rn</tspan>
    </text>
    <text y="124.01302" x="-559.7132" id="text173-1-1-2-81">
      <tspan style="font-size:32px;letter-spacing:-3px;text-anchor:end;font-family:'DejaVu Sans Condensed, sans-serif'" id="tspan175-7-2-7-82" class="su" y="639.013" x="-479.71317">222</tspan>
    </text>
    <text style="font-size:11.59958458px" transform="scale(0.96663206,1.0345198)" y="152.84915" x="-575.80762" id="text173-8-3-7-6">
      <tspan style="font-size:30.93222618px;letter-spacing:-2.89989614px;text-anchor:end;font-family:'DejaVu Sans Condensed, sans-serif'" id="tspan175-8-4-9-6" class="su" y="650.66479" x="-498.47708">86</tspan>
    </text>
    <text id="text3265-1-3-03" y="721.74268" x="-557.07813" style="font-size:12px">
      <tspan id="tspan3267-13-1-8" style="font-size:27px;text-anchor:middle;font-family:'DejaVu Sans Condensed, sans-serif'" class="halflife" dy="0 0 0 0 0 0 0 0 0 0 0 0 0" x="-447.07819">3.8 Days</tspan>
    </text>
  </g>
  <line x1="520.25708" y1="1213.853" x2="520.25708" y2="1380.7892" id="line221-7-5" style="stroke:#000000;stroke-width:2.99628639;marker-end:url(#Arrow2Mend)"/>
  <text x="524.53748" y="1299.4614" class="ab" id="text223-3-0" style="font-size:34.24327469px;font-style:italic;font-family:'Liberation Sans, sans-serif'">α</text>
  <line x1="870.25708" y1="1555.8531" x2="870.25708" y2="1722.7892" id="line311-1" style="stroke:#000000;stroke-width:2.99628639;marker-end:url(#Arrow2Mend)"/>
  <text x="874.53748" y="1641.4613" class="ab" id="text313-6" style="font-size:34.24327469px;font-style:italic;font-family:'Liberation Sans, sans-serif'">α</text>
  <line x1="752.91113" y1="1917.3353" x2="799.99561" y2="1870.2509" id="line329-6" style="stroke:#000000;stroke-width:2.99628639;marker-end:url(#Arrow2Mend)"/>
  <text x="767.17664" y="1928.7523" class="ab" id="text331-1" style="font-size:34.24327469px;font-style:italic;font-family:'Liberation Sans, sans-serif'">β⁻</text>
  <rect x="3.8814025" y="7.6549001" width="1572.6091" height="171.54898" class="background1" id="rect67-8" style="fill:#f5f5f5;stroke:none"/>
  <circle d="m 410,310 c 0,55.22847 -44.77153,100 -100,100 -55.22847,0 -100,-44.77153 -100,-100 0,-55.22847 44.77153,-100 100,-100 55.22847,0 100,44.77153 100,100 z" style="fill:url(#radialGradient4888);stroke:#000000;stroke-width:3.5" cx="310" cy="310" r="100" class="actinide" id="circle189-3-8" sodipodi:cx="310" sodipodi:cy="310" sodipodi:rx="100" sodipodi:ry="100" transform="matrix(0.85608186,0,0,0.85608186,-104.23834,-169.90561)"/>
  <text id="text191-4-8" x="-88.578011" y="69.601868" sodipodi:linespacing="125%" style="font-size:10.2729826px;line-height:125%">
    <tspan x="151.12494" dy="35.955437" class="symbol" id="tspan197-1-0" style="font-size:77.04737091px;font-style:normal;font-variant:normal;font-weight:bold;font-stretch:normal;text-align:start;line-height:125%;writing-mode:lr-tb;text-anchor:start;stroke:none;font-family:Sans;-inkscape-font-specification:Sans Bold">U</tspan>
  </text>
  <text id="text191-8-1-8" x="-90.74617" y="-164.25754" style="font-size:10.2729826px">
    <tspan x="148.95673" y="105.40826" class="su" id="tspan193-8-3-7" style="font-size:27.39461899px;letter-spacing:-2.56824565px;text-anchor:end;font-family:'DejaVu Sans Condensed, sans-serif'" dy="-35.955437">238</tspan>
  </text>
  <text id="text191-17-8-7" x="-134.76086" y="137.30669" style="font-size:15.40947342px;font-style:normal;font-variant:normal;font-weight:normal;font-stretch:normal;text-align:start;line-height:125%;writing-mode:lr-tb;text-anchor:start;font-family:Sans;-inkscape-font-specification:Sans" sodipodi:linespacing="125%">
    <tspan x="130.62457" class="halflife" id="tspan199-2-7-8" style="font-size:23.11421013px;font-style:normal;font-variant:normal;font-weight:normal;font-stretch:normal;text-align:start;line-height:125%;writing-mode:lr-tb;text-anchor:start;font-family:Sans;-inkscape-font-specification:Sans">4.5e9</tspan>
  </text>
  <text x="-133.7041" y="158.97371" style="font-size:23.11421013px;font-style:normal;font-variant:normal;font-weight:normal;font-stretch:normal;text-align:start;line-height:125%;writing-mode:lr-tb;text-anchor:start;font-family:Sans;-inkscape-font-specification:Sans" sodipodi:linespacing="125%" id="text3552-4-3">
    <tspan x="131.68126" dy="2.7485404e-039 0 0 0 0 0 0 2.7485404e-039" class="halflife" style="font-size:23.11421013px;font-style:normal;font-variant:normal;font-weight:normal;font-stretch:normal;text-align:start;line-height:125%;writing-mode:lr-tb;text-anchor:start;font-family:Sans;-inkscape-font-specification:Sans" id="tspan3554-2-8">Years</tspan>
  </text>
  <text id="text191-6-7-3" x="-91.587868" y="-175.99588" style="font-size:10.2729826px">
    <tspan x="148.11505" y="93.669907" class="su" id="tspan193-1-7-7" style="font-size:27.39461899px;letter-spacing:-2.56824565px;text-anchor:end;font-family:'DejaVu Sans Condensed, sans-serif'" dy="0 0">92</tspan>
  </text>
  <text x="1563.2828" y="169.30196" class="SideKey" id="text93-9-1" style="font-size:34.24327469px;text-anchor:end;fill:#555555;font-family:'DejaVu Sans Light, sans-serif'">Uranium</text>
  <circle d="m 410,310 c 0,55.22847 -44.77153,100 -100,100 -55.22847,0 -100,-44.77153 -100,-100 0,-55.22847 44.77153,-100 100,-100 55.22847,0 100,44.77153 100,100 z" style="fill:url(#radialGradient3503);stroke:#000000;stroke-width:3.5" cx="310" cy="310" r="100" class="actinide" id="circle189-3-8-8" sodipodi:cx="310" sodipodi:cy="310" sodipodi:rx="100" sodipodi:ry="100" transform="matrix(0.85608186,0,0,0.85608186,253.07256,-169.99111)"/>
  <text id="text191-4-8-2" x="266.73288" y="69.516373" sodipodi:linespacing="125%" style="font-size:10.2729826px;line-height:125%">
    <tspan x="506.43585" dy="35.955437" class="symbol" id="tspan197-1-0-4" style="font-size:77.04737091px;font-style:normal;font-variant:normal;font-weight:bold;font-stretch:normal;text-align:start;line-height:125%;writing-mode:lr-tb;text-anchor:start;stroke:none;font-family:Sans;-inkscape-font-specification:Sans Bold">U</tspan>
  </text>
  <text id="text191-8-1-8-5" x="264.56476" y="-164.34303" style="font-size:10.2729826px">
    <tspan x="504.26764" y="105.32278" class="su" id="tspan193-8-3-7-5" style="font-size:27.39461899px;letter-spacing:-2.56824565px;text-anchor:end;font-family:'DejaVu Sans Condensed, sans-serif'" dy="-35.955437">234</tspan>
  </text>
  <text id="text191-17-8-7-1" x="293.50217" y="137.22121" style="font-size:15.40947342px;font-style:normal;font-variant:normal;font-weight:normal;font-stretch:normal;text-align:center;line-height:125%;writing-mode:lr-tb;text-anchor:middle;font-family:Sans;-inkscape-font-specification:Sans" sodipodi:linespacing="125%">
    <tspan x="517.93549" class="halflife" id="tspan199-2-7-8-7" style="font-size:23.11421013px;font-style:normal;font-variant:normal;font-weight:normal;font-stretch:normal;text-align:center;line-height:125%;writing-mode:lr-tb;text-anchor:middle;font-family:Sans;-inkscape-font-specification:Sans">245,500</tspan>
  </text>
  <text x="219.60681" y="158.88823" style="font-size:23.11421013px;font-style:normal;font-variant:normal;font-weight:normal;font-stretch:normal;text-align:start;line-height:125%;writing-mode:lr-tb;text-anchor:start;font-family:Sans;-inkscape-font-specification:Sans" sodipodi:linespacing="125%" id="text3552-4-3-1">
    <tspan x="484.99219" dy="2.7485404e-039 0 0 0 0 0 0 2.7485404e-039" class="halflife" style="font-size:23.11421013px;font-style:normal;font-variant:normal;font-weight:normal;font-stretch:normal;text-align:start;line-height:125%;writing-mode:lr-tb;text-anchor:start;font-family:Sans;-inkscape-font-specification:Sans" id="tspan3554-2-8-1">Years</tspan>
  </text>
  <text id="text191-6-7-3-5" x="263.72305" y="-176.08138" style="font-size:10.2729826px">
    <tspan x="503.42596" y="93.584427" class="su" id="tspan193-1-7-7-2" style="font-size:27.39461899px;letter-spacing:-2.56824565px;text-anchor:end;font-family:'DejaVu Sans Condensed, sans-serif'" dy="0 0">92</tspan>
  </text>
  <line x1="401.1882" y1="206.66548" x2="448.27271" y2="159.58101" id="line185-2-2" style="stroke:#000000;stroke-width:2.99628639;marker-end:url(#Arrow2Mend)"/>
  <text x="423.45374" y="214.08241" class="ab" id="text187-3-3" style="font-size:34.24327469px;font-style:italic;font-family:'Liberation Sans, sans-serif'">β⁻</text>
  <line x1="1050.8431" y1="1728.3279" x2="1050.8431" y2="1895.264" id="line311-3" style="stroke:#000000;stroke-width:2.99628639;marker-end:url(#Arrow2Mend)"/>
  <text x="1055.1235" y="1813.936" class="ab" id="text313-7" style="font-size:34.24327469px;font-style:italic;font-family:'Liberation Sans, sans-serif'">α</text>
  <circle d="m 610,2510 c 0,55.2285 -44.77153,100 -100,100 -55.22847,0 -100,-44.7715 -100,-100 0,-55.2285 44.77153,-100 100,-100 55.22847,0 100,44.7715 100,100 z" style="fill:url(#radialGradient3390-6);stroke:#000000;stroke-width:3.5" cx="510" cy="2510" r="100" class="poormetal" id="circle315-8" sodipodi:cx="510" sodipodi:cy="2510" sodipodi:rx="100" sodipodi:ry="100" transform="matrix(0.85608186,0,0,0.85608186,614.2414,-163.61303)"/>
  <line x1="1109.625" y1="1580.3706" x2="1156.7095" y2="1533.2861" id="line329-8" style="stroke:#000000;stroke-width:2.99628639;marker-end:url(#Arrow2Mend)"/>
  <text x="1123.8905" y="1591.7876" class="ab" id="text331-2" style="font-size:34.24327469px;font-style:italic;font-family:'Liberation Sans, sans-serif'">β⁻</text>
  <line x1="932.84137" y1="1751.1543" x2="979.92584" y2="1704.0698" id="line347-9" style="stroke:#000000;stroke-width:2.99628639;marker-end:url(#Arrow2Mend)"/>
  <text x="949.10687" y="1760.5713" class="ab" id="text349-1" style="font-size:34.24327469px;font-style:italic;font-family:'Liberation Sans, sans-serif'">β⁻</text>
  <circle d="m 1010,2110 c 0,55.2285 -44.77153,100 -100,100 -55.22847,0 -100,-44.7715 -100,-100 0,-55.2285 44.77153,-100 100,-100 55.22847,0 100,44.7715 100,100 z" style="fill:url(#radialGradient3386-6);stroke:#000000;stroke-width:3.5" cx="910" cy="2110" r="100" class="poormetal" id="circle351-3" sodipodi:cx="910" sodipodi:cy="2110" sodipodi:rx="100" sodipodi:ry="100" transform="matrix(0.85608186,0,0,0.85608186,270.2414,-163.61303)"/>
  <g id="g3965-8" transform="matrix(0.85608186,0,0,0.85608186,1373.6689,191.89047)">
    <text y="1708.8809" x="-479.20569" id="text173-4-7-8-6-4" sodipodi:linespacing="125%" style="line-height:125%">
      <tspan style="font-size:90px;font-style:normal;font-variant:normal;font-weight:bold;font-stretch:normal;text-align:start;line-height:125%;writing-mode:lr-tb;text-anchor:start;stroke:none;font-family:Sans;-inkscape-font-specification:Sans Bold" id="tspan179-3-4-2-1-0" class="symbol" x="-399.20563">Bi</tspan>
    </text>
    <text y="1155.0503" x="-482.0152" id="text173-1-1-2-9-5-7">
      <tspan style="font-size:32px;letter-spacing:-3px;text-anchor:end;font-family:'DejaVu Sans Condensed, sans-serif'" id="tspan175-7-2-7-1-4-6" class="su" y="1670.0503" x="-402.01514">210</tspan>
    </text>
    <text style="font-size:11.59958458px" transform="scale(0.96663206,1.0345198)" y="1149.4828" x="-495.42746" id="text173-8-3-7-35-2-3">
      <tspan style="font-size:30.93222618px;letter-spacing:-2.89989614px;text-anchor:end;font-family:'DejaVu Sans Condensed, sans-serif'" id="tspan175-8-4-9-98-0-6" class="su" y="1647.2985" x="-418.09695">83</tspan>
    </text>
    <text id="text3265-1-3-40-9-1" y="1746.8923" x="-491.90271" style="font-size:12px">
      <tspan id="tspan3267-13-1-76-7-5" style="font-size:27px;text-anchor:middle;font-family:'DejaVu Sans Condensed, sans-serif'" class="halflife" dy="0 0 0 0" x="-381.90271"/>
    </text>
    <text sodipodi:linespacing="125%" id="text3931-4" y="1772.1909" x="-412.12939" style="font-size:40px;font-style:normal;font-weight:normal;line-height:125%;letter-spacing:0px;word-spacing:0px;fill:#000000;fill-opacity:1;stroke:none;font-family:Sans" xml:space="preserve"><tspan y="1772.1909" x="-412.12939" style="font-size:25px;font-family:'DejaVu Sans Condensed, sans-serif'" id="tspan3933-2" sodipodi:role="line"/></text>
  </g>
  <g id="g3579-0-7-0" transform="matrix(0.85608186,0,0,0.85608186,1437.8635,1416.6653)">
    <text y="677.84357" x="-556.90369" id="text173-4-7-6-77-9" sodipodi:linespacing="125%" style="line-height:125%">
      <tspan style="font-size:90px;font-style:normal;font-variant:normal;font-weight:bold;font-stretch:normal;text-align:start;line-height:125%;writing-mode:lr-tb;text-anchor:start;stroke:none;font-family:Sans;-inkscape-font-specification:Sans Bold" id="tspan179-3-4-6-7-7" class="symbol" x="-476.90366">Tl</tspan>
    </text>
    <text y="124.01302" x="-559.7132" id="text173-1-1-2-1-3-3">
      <tspan style="font-size:32px;letter-spacing:-3px;text-anchor:end;font-family:'DejaVu Sans Condensed, sans-serif'" id="tspan175-7-2-7-8-3-7" class="su" y="639.013" x="-479.71317">206</tspan>
    </text>
    <text style="font-size:11.59958458px" transform="scale(0.96663206,1.0345198)" y="152.84915" x="-575.80762" id="text173-8-3-7-4-5-2">
      <tspan style="font-size:30.93222618px;letter-spacing:-2.89989614px;text-anchor:end;font-family:'DejaVu Sans Condensed, sans-serif'" id="tspan175-8-4-9-96-9-6" class="su" y="650.66479" x="-498.47708">81</tspan>
    </text>
    <text id="text3265-1-3-3-9-0" y="719.40643" x="-561.75061">
      <tspan id="tspan3267-13-1-7-8-1" style="font-size:27px;text-anchor:middle;font-family:'DejaVu Sans Condensed, sans-serif'" class="halflife" x="-451.75061">4.2 Minutes</tspan>
    </text>
  </g>
  <text xml:space="preserve" style="font-size:40px;font-style:normal;font-weight:normal;line-height:125%;letter-spacing:0px;word-spacing:0px;fill:#000000;fill-opacity:1;stroke:none;font-family:Sans" x="1015.8694" y="1690.6057" id="text3344-6" sodipodi:linespacing="125%"><tspan sodipodi:role="line" id="tspan3346-5" style="font-size:22px;font-family:'DejaVu Sans Condensed, sans-serif'" x="1015.8694" y="1690.6057">5 Days</tspan></text>
  <circle d="m 810,2310 c 0,55.2285 -44.77153,100 -100,100 -55.22847,0 -100,-44.7715 -100,-100 0,-55.2285 44.77153,-100 100,-100 55.22847,0 100,44.7715 100,100 z" style="fill:url(#radialGradient3388-1-0);stroke:#000000;stroke-width:3.5" cx="710" cy="2310" r="100" class="poormetal" id="circle333-50-1" sodipodi:cx="710" sodipodi:cy="2310" sodipodi:rx="100" sodipodi:ry="100" transform="matrix(0.85608186,0,0,0.85608186,617.04604,-161.36093)"/>
  <g id="g4151-8-7" transform="matrix(0.85608186,0,0,0.85608186,1465.4536,89.00157)">
    <text y="2037.5885" x="-389.40131" id="text173-4-7-6-7-1-6-7" sodipodi:linespacing="125%" style="line-height:125%">
      <tspan style="font-size:90px;font-style:normal;font-variant:normal;font-weight:bold;font-stretch:normal;text-align:start;line-height:125%;writing-mode:lr-tb;text-anchor:start;stroke:none;font-family:Sans;-inkscape-font-specification:Sans Bold" id="tspan179-3-4-6-2-2-0-7" class="symbol" x="-309.40128">Pb</tspan>
    </text>
    <text y="1483.7581" x="-392.21082" id="text173-1-1-2-1-6-0-24-7">
      <tspan style="font-size:32px;letter-spacing:-3px;text-anchor:end;font-family:'DejaVu Sans Condensed, sans-serif'" id="tspan175-7-2-7-8-0-0-8-3" class="su" y="1998.7579" x="-312.21078">206</tspan>
    </text>
    <text style="font-size:11.59958458px" transform="scale(0.96663206,1.0345198)" y="1467.2222" x="-402.52307" id="text173-8-3-7-4-1-1-6-3">
      <tspan style="font-size:30.93222618px;letter-spacing:-2.89989614px;text-anchor:end;font-family:'DejaVu Sans Condensed, sans-serif'" id="tspan175-8-4-9-96-6-4-5-5" class="su" y="1965.0378" x="-325.19254">82</tspan>
    </text>
    <text id="text3265-1-3-3-5-6-0-9" y="2073.1514" x="-390.24823">
      <tspan id="tspan3267-13-1-7-7-0-9-9" style="font-size:27px;text-anchor:middle;font-family:'DejaVu Sans Condensed, sans-serif'" class="halflife" x="-280.24823"/>
    </text>
    <text xml:space="preserve" style="font-size:40px;font-style:normal;font-weight:normal;text-align:center;line-height:125%;letter-spacing:0px;word-spacing:0px;text-anchor:middle;fill:#000000;fill-opacity:1;stroke:none;font-family:Sans" x="-280.99957" y="2082.1033" id="text4019-7-0-8" sodipodi:linespacing="125%"><tspan sodipodi:role="line" id="tspan4021-1-0-1" style="font-size:25px;text-align:center;text-anchor:middle;font-family:'DejaVu Sans Condensed, sans-serif'" x="-280.99957" y="2082.1033">Stable</tspan></text>
  </g>
  <circle d="m 810,1910 c 0,55.2285 -44.77153,100 -100,100 -55.22847,0 -100,-44.7715 -100,-100 0,-55.2285 44.77153,-100 100,-100 55.22847,0 100,44.7715 100,100 z" style="fill:url(#radialGradient3626-65);stroke:#000000;stroke-width:3.5" cx="710" cy="1910" r="100" class="metalloid" id="circle385-0-8" sodipodi:cx="710" sodipodi:cy="1910" sodipodi:rx="100" sodipodi:ry="100" transform="matrix(0.85608186,0,0,0.85608186,614.05138,-164.51063)"/>
  <g id="g3579-0-3-6-2" transform="matrix(0.85608186,0,0,0.85608186,627.87554,1045.1101)">
    <g id="g4045-6-6" transform="translate(1042.0237,-204.17714)">
      <text id="text173-4-7-6-7-18-6" x="-456.81512" y="715.13147" sodipodi:linespacing="125%" style="line-height:125%">
        <tspan x="-376.81509" class="symbol" id="tspan179-3-4-6-2-4-0" style="font-size:90px;font-style:normal;font-variant:normal;font-weight:bold;font-stretch:normal;text-align:start;line-height:125%;writing-mode:lr-tb;text-anchor:start;stroke:none;font-family:Sans;-inkscape-font-specification:Sans Bold">Po</tspan>
      </text>
      <text id="text173-1-1-2-1-6-9-3" x="-459.62463" y="161.30092">
        <tspan x="-379.6246" y="676.3009" class="su" id="tspan175-7-2-7-8-0-6-8" style="font-size:32px;letter-spacing:-3px;text-anchor:end;font-family:'DejaVu Sans Condensed, sans-serif'">210</tspan>
      </text>
      <text id="text173-8-3-7-4-1-3-0" x="-472.26401" y="188.89282" transform="scale(0.96663206,1.0345198)" style="font-size:11.59958458px">
        <tspan x="-394.93347" y="686.7085" class="su" id="tspan175-8-4-9-96-6-7-1" style="font-size:30.93222618px;letter-spacing:-2.89989614px;text-anchor:end;font-family:'DejaVu Sans Condensed, sans-serif'">84</tspan>
      </text>
      <text x="-457.99826" y="757.70306" id="text3265-1-3-3-5-8-2" style="font-size:12px">
        <tspan x="-347.99826" class="halflife" style="font-size:27px;text-anchor:middle;font-family:'DejaVu Sans Condensed, sans-serif'" id="tspan3267-13-1-7-7-8-5">138 Days</tspan>
      </text>
      <text sodipodi:linespacing="125%" id="text4019-2-0" y="778.33575" x="-396.80231" style="font-size:40px;font-style:normal;font-weight:normal;line-height:125%;letter-spacing:0px;word-spacing:0px;fill:#000000;fill-opacity:1;stroke:none;font-family:Sans" xml:space="preserve"><tspan y="778.33575" x="-396.80231" style="font-size:26.99508286px;font-family:'DejaVu Sans Condensed, sans-serif'" id="tspan4021-9-9" sodipodi:role="line"/></text>
    </g>
  </g>
  <line x1="1222.4697" y1="1556.5798" x2="1222.4697" y2="1723.5159" id="line311-1-4" style="stroke:#000000;stroke-width:2.99628639;marker-end:url(#Arrow2Mend)"/>
  <text x="1226.7501" y="1642.188" class="ab" id="text313-6-7" style="font-size:34.24327469px;font-style:italic;font-family:'Liberation Sans, sans-serif'">α</text>
  <line x1="1105.1238" y1="1918.0621" x2="1152.2083" y2="1870.9777" id="line329-6-8" style="stroke:#000000;stroke-width:2.99628639;marker-end:url(#Arrow2Mend)"/>
  <text x="1119.3893" y="1929.4791" class="ab" id="text331-1-3" style="font-size:34.24327469px;font-style:italic;font-family:'Liberation Sans, sans-serif'">β⁻</text>
  <rect x="5.1801295" y="2075.7861" width="1572.6091" height="171.54898" class="background1" id="rect79-5" style="fill:#f5f5f5;stroke:none"/>
  <circle d="m 810,2310 c 0,55.2285 -44.77153,100 -100,100 -55.22847,0 -100,-44.7715 -100,-100 0,-55.2285 44.77153,-100 100,-100 55.22847,0 100,44.7715 100,100 z" style="fill:url(#radialGradient4168);fill-opacity:1;stroke:#000000;stroke-width:3.5" cx="710" cy="2310" r="100" class="poormetal" id="circle333-50-9" sodipodi:cx="710" sodipodi:cy="2310" sodipodi:rx="100" sodipodi:ry="100" transform="matrix(0.85608186,0,0,0.85608186,267.83873,185.32994)"/>
  <g id="g4151-8-8" transform="matrix(0.85608186,0,0,0.85608186,1116.2463,435.69244)">
    <text y="2037.5885" x="-389.40131" id="text173-4-7-6-7-1-6-8" sodipodi:linespacing="125%" style="line-height:125%">
      <tspan style="font-size:90px;font-style:normal;font-variant:normal;font-weight:bold;font-stretch:normal;text-align:start;line-height:125%;writing-mode:lr-tb;text-anchor:start;stroke:none;font-family:Sans;-inkscape-font-specification:Sans Bold" id="tspan179-3-4-6-2-2-0-0" class="symbol" x="-309.40128">Hg</tspan>
    </text>
    <text y="1483.7581" x="-392.21082" id="text173-1-1-2-1-6-0-24-8">
      <tspan style="font-size:32px;letter-spacing:-3px;text-anchor:end;font-family:'DejaVu Sans Condensed, sans-serif'" id="tspan175-7-2-7-8-0-0-8-7" class="su" y="1998.7579" x="-312.21078">206</tspan>
    </text>
    <text style="font-size:11.59958458px" transform="scale(0.96663206,1.0345198)" y="1467.2222" x="-402.52307" id="text173-8-3-7-4-1-1-6-7">
      <tspan style="font-size:30.93222618px;letter-spacing:-2.89989614px;text-anchor:end;font-family:'DejaVu Sans Condensed, sans-serif'" id="tspan175-8-4-9-96-6-4-5-8" class="su" y="1965.0378" x="-325.19254">80</tspan>
    </text>
    <text id="text3265-1-3-3-5-6-0-3" y="2073.1514" x="-390.24823">
      <tspan id="tspan3267-13-1-7-7-0-9-8" style="font-size:27px;text-anchor:middle;font-family:'DejaVu Sans Condensed, sans-serif'" class="halflife" x="-280.24823"/>
    </text>
    <text xml:space="preserve" style="font-size:40px;font-style:normal;font-weight:normal;text-align:center;line-height:125%;letter-spacing:0px;word-spacing:0px;text-anchor:middle;fill:#000000;fill-opacity:1;stroke:none;font-family:Sans" x="-280.99957" y="2082.1033" id="text4019-7-0-3" sodipodi:linespacing="125%"><tspan sodipodi:role="line" id="tspan4021-1-0-7" style="font-size:25px;text-align:center;text-anchor:middle;font-family:'DejaVu Sans Condensed, sans-serif'" x="-280.99957" y="2082.1033">8.1 Minutes</tspan></text>
  </g>
  <line x1="873.26245" y1="1903.2709" x2="873.26245" y2="2070.2073" id="line311-1-1" style="stroke:#000000;stroke-width:2.99628639;marker-end:url(#Arrow2Mend)"/>
  <text x="877.54285" y="1988.879" class="ab" id="text313-6-0" style="font-size:34.24327469px;font-style:italic;font-family:'Liberation Sans, sans-serif'">α</text>
  <g transform="matrix(0.85608186,0,0,0.85608186,2.2971842,1943.7427)" id="g117-2">
    <rect x="10" y="10" width="340" height="340" style="fill:#ffffff;stroke:#000000;stroke-width:2px" id="rect119-8"/>
    <rect x="20" y="20" width="40" height="40" class="actinide" id="rect121-9" style="fill:url(#radialGradient5365)"/>
    <text x="65" y="50" class="key" id="text123-0" style="font-size:25px;font-family:'DejaVu Sans Light, sans-serif'">Actinides</text>
    <rect x="20" y="60" width="40" height="40" class="alkali" id="rect125-7" style="fill:url(#radialGradient5367)"/>
    <text x="65" y="90" class="key" id="text127-8" style="font-size:25px;font-family:'DejaVu Sans Light, sans-serif'">Alkali Metals</text>
    <rect x="20" y="100" width="40" height="40" class="alkaline" id="rect129-1" style="fill:url(#radialGradient5369)"/>
    <text x="65" y="130" class="key" id="text131-5" style="font-size:25px;font-family:'DejaVu Sans Light, sans-serif'">Alkaline Earth Metals</text>
    <rect x="20" y="140" width="40" height="40" class="halogen" id="rect133-8" style="fill:url(#radialGradient5371)"/>
    <text x="65" y="170" class="key" id="text135-6" style="font-size:25px;font-family:'DejaVu Sans Light, sans-serif'">Halogens</text>
    <rect x="20" y="180" width="40" height="40" class="metalloid" id="rect137-1" style="fill:url(#radialGradient5373)"/>
    <text x="65" y="210" class="key" id="text139-2" style="font-size:25px;font-family:'DejaVu Sans Light, sans-serif'">Metalloids</text>
    <rect x="20" y="220" width="40" height="40" class="noblegas" id="rect141-4" style="fill:url(#radialGradient5375)"/>
    <text x="65" y="250" class="key" id="text143-2" style="font-size:25px;font-family:'DejaVu Sans Light, sans-serif'">Noble Gases</text>
    <rect x="20" y="260" width="40" height="40" class="poormetal" id="rect145-5" style="fill:url(#radialGradient5377)"/>
    <text x="65" y="290" class="key" id="text147-8" style="font-size:25px;font-family:'DejaVu Sans Light, sans-serif'">Poor Metals</text>
    <rect x="20" y="300" width="40" height="40" class="transition" id="rect149-6" style="fill:url(#radialGradient5379)"/>
    <text x="65" y="330" class="key" id="text151-2" style="font-size:25px;font-family:'DejaVu Sans Light, sans-serif'">Transition Metals</text>
  </g>
  <text x="1563.0148" y="2231.9551" class="SideKey" id="text113-3" style="font-size:34.24327469px;text-anchor:end;fill:#555555;font-family:'DejaVu Sans Light, sans-serif'">Mercury</text>
  <text xml:space="preserve" style="font-size:40px;font-style:normal;font-weight:normal;line-height:125%;letter-spacing:0px;word-spacing:0px;fill:#000000;fill-opacity:1;stroke:none;font-family:Sans" x="492.18793" y="509.43317" id="text5405" sodipodi:linespacing="125%"><tspan sodipodi:role="line" id="tspan5407" style="font-size:23.11000061px;font-family:'DejaVu Sans Condensed, sans-serif'" x="492.18793" y="509.43317">Years</tspan></text>
  <text xml:space="preserve" style="font-size:40px;font-style:normal;font-weight:normal;line-height:125%;letter-spacing:0px;word-spacing:0px;fill:#000000;fill-opacity:1;stroke:none;font-family:Sans" x="-384" y="1584.3301" id="text5409" sodipodi:linespacing="125%"><tspan sodipodi:role="line" id="tspan5411" style="font-size:25px;font-family:'DejaVu Sans Condensed, sans-serif'" x="-384" y="1584.3301">WITH INTERNET</tspan><tspan sodipodi:role="line" style="font-size:25px;font-family:'DejaVu Sans Condensed, sans-serif'" x="-384" y="1615.5801" id="tspan5417">Check the e of the </tspan><tspan sodipodi:role="line" style="font-size:25px;font-family:'DejaVu Sans Condensed, sans-serif'" x="-384" y="1646.8301" id="tspan5413">middle PO, both Us </tspan><tspan sodipodi:role="line" style="font-size:25px;font-family:'DejaVu Sans Condensed, sans-serif'" x="-384" y="1678.0801" id="tspan5415">and the 2nd Th</tspan></text>
</svg>